03_lab/data/optical-cavity-day3/bad/oc_data_L13cm_mar26_329.csv

Record Length,2500,Points,-5.36400033E-3,-4.87999991E-3,,Record Length,2500,Points,-5.36400033E-3,456.000030041E-3,
Sample Interval,3.99999999E-6,s,-5.36000030E-3,-4.39999998E-3,,Sample Interval,3.99999999E-6,s,-5.36000030E-3,456.000030041E-3,
Trigger Point,1.3410001E3,Samples,-5.35600027E-3,-4.96000005E-3,,Trigger Point,1.3410001E3,Samples,-5.35600027E-3,448.000013828E-3,
,,,-5.35200024E-3,-4.31999983E-3,,,,,-5.35200024E-3,456.000030041E-3,
,,,-5.34800021E-3,-4.79999976E-3,,,,,-5.34800021E-3,456.000030041E-3,
,,,-5.34400018E-3,-4.72000008E-3,,,,,-5.34400018E-3,456.000030041E-3,
Source,CH1,,-5.34000015E-3,-4.55999980E-3,,Source,CH2,,-5.34000015E-3,448.000013828E-3,
Vertical Units,Volts,,-5.33600012E-3,-4.72000008E-3,,Vertical Units,Volts,,-5.33600012E-3,448.000013828E-3,
Vertical Scale,1.9999999E-3,,-5.33200055E-3,-4.79999976E-3,,Vertical Scale,200.00000950E-3,,-5.33200055E-3,448.000013828E-3,
Vertical Offset,0,,-5.32800052E-3,-4.72000008E-3,,Vertical Offset,0,,-5.32800052E-3,448.000013828E-3,
Horizontal Units,s,,-5.32400049E-3,-5.03999973E-3,,Horizontal Units,s,,-5.32400049E-3,448.000013828E-3,
Horizontal Scale,1.000000E-3,,-5.32000046E-3,-4.72000008E-3,,Horizontal Scale,1.000000E-3,,-5.32000046E-3,448.000013828E-3,
Pt Fmt,Y,,-5.31600043E-3,-4.47999965E-3,,Pt Fmt,Y,,-5.31600043E-3,448.000013828E-3,
Yzero,0.0,,-5.31200040E-3,-4.47999965E-3,,Yzero,-1.8800000,,-5.31200040E-3,448.000013828E-3,
Probe Atten,1.000000,,-5.30800037E-3,-4.47999965E-3,,Probe Atten,1.000000,,-5.30800037E-3,448.000013828E-3,
,,,-5.30400034E-3,-4.39999998E-3,,,,,-5.30400034E-3,440.000027418E-3,
Note,TDS 1002B - 3:29:25 PM   3/26/2018,,-5.30000031E-3,-4.72000008E-3,,Note,TDS 1002B - 3:29:25 PM   3/26/2018,,-5.30000031E-3,448.000013828E-3,
,,,-5.29600028E-3,-4.96000005E-3,,,,,-5.29600028E-3,448.000013828E-3,
,,,-5.29200025E-3,-4.47999965E-3,,,,,-5.29200025E-3,440.000027418E-3,
,,,-5.28800022E-3,-4.55999980E-3,,,,,-5.28800022E-3,440.000027418E-3,
,,,-5.28400019E-3,-4.96000005E-3,,,,,-5.28400019E-3,440.000027418E-3,
,,,-5.28000016E-3,-4.16000001E-3,,,,,-5.28000016E-3,440.000027418E-3,
,,,-5.27600013E-3,-4.55999980E-3,,,,,-5.27600013E-3,440.000027418E-3,
,,,-5.27200056E-3,-4.55999980E-3,,,,,-5.27200056E-3,440.000027418E-3,
,,,-5.26800053E-3,-4.96000005E-3,,,,,-5.26800053E-3,432.000011206E-3,
,,,-5.26400050E-3,-4.31999983E-3,,,,,-5.26400050E-3,432.000011206E-3,
,,,-5.26000047E-3,-4.72000008E-3,,,,,-5.26000047E-3,432.000011206E-3,
,,,-5.25600044E-3,-3.83999990E-3,,,,,-5.25600044E-3,432.000011206E-3,
,,,-5.25200041E-3,-4.72000008E-3,,,,,-5.25200041E-3,432.000011206E-3,
,,,-5.24800038E-3,-4.55999980E-3,,,,,-5.24800038E-3,432.000011206E-3,
,,,-5.24400035E-3,-4.47999965E-3,,,,,-5.24400035E-3,432.000011206E-3,
,,,-5.24000032E-3,-4.23999969E-3,,,,,-5.24000032E-3,432.000011206E-3,
,,,-5.23600029E-3,-4.79999976E-3,,,,,-5.23600029E-3,424.000024796E-3,
,,,-5.23200026E-3,-4.07999987E-3,,,,,-5.23200026E-3,432.000011206E-3,
,,,-5.22800023E-3,-4.47999965E-3,,,,,-5.22800023E-3,432.000011206E-3,
,,,-5.22400020E-3,-4.55999980E-3,,,,,-5.22400020E-3,424.000024796E-3,
,,,-5.22000017E-3,-4.72000008E-3,,,,,-5.22000017E-3,424.000024796E-3,
,,,-5.21600014E-3,-5.11999987E-3,,,,,-5.21600014E-3,424.000024796E-3,
,,,-5.21200011E-3,-4.79999976E-3,,,,,-5.21200011E-3,424.000024796E-3,
,,,-5.20800054E-3,-4.87999991E-3,,,,,-5.20800054E-3,424.000024796E-3,
,,,-5.20400051E-3,-3.92000005E-3,,,,,-5.20400051E-3,424.000024796E-3,
,,,-5.20000048E-3,-4.79999976E-3,,,,,-5.20000048E-3,424.000024796E-3,
,,,-5.19600045E-3,-4.16000001E-3,,,,,-5.19600045E-3,424.000024796E-3,
,,,-5.19200042E-3,-4.47999965E-3,,,,,-5.19200042E-3,424.000024796E-3,
,,,-5.18800039E-3,-4.63999994E-3,,,,,-5.18800039E-3,424.000024796E-3,
,,,-5.18400036E-3,-4.31999983E-3,,,,,-5.18400036E-3,416.000008583E-3,
,,,-5.18000033E-3,-4.55999980E-3,,,,,-5.18000033E-3,416.000008583E-3,
,,,-5.17600030E-3,-4.23999969E-3,,,,,-5.17600030E-3,416.000008583E-3,
,,,-5.17200027E-3,-4.16000001E-3,,,,,-5.17200027E-3,416.000008583E-3,
,,,-5.16800024E-3,-4.47999965E-3,,,,,-5.16800024E-3,416.000008583E-3,
,,,-5.16400021E-3,-4.16000001E-3,,,,,-5.16400021E-3,416.000008583E-3,
,,,-5.16000018E-3,-4.23999969E-3,,,,,-5.16000018E-3,416.000008583E-3,
,,,-5.15600014E-3,-3.99999972E-3,,,,,-5.15600014E-3,416.000008583E-3,
,,,-5.15200011E-3,-4.31999983E-3,,,,,-5.15200011E-3,408.000022173E-3,
,,,-5.14800055E-3,-3.99999972E-3,,,,,-5.14800055E-3,416.000008583E-3,
,,,-5.14400052E-3,-4.07999987E-3,,,,,-5.14400052E-3,408.000022173E-3,
,,,-5.14000049E-3,-3.43999988E-3,,,,,-5.14000049E-3,408.000022173E-3,
,,,-5.13600046E-3,-3.59999994E-3,,,,,-5.13600046E-3,408.000022173E-3,
,,,-5.13200043E-3,-3.03999986E-3,,,,,-5.13200043E-3,408.000022173E-3,
,,,-5.12800040E-3,-2.1599999E-3,,,,,-5.12800040E-3,408.000022173E-3,
,,,-5.12400037E-3,-1.9999999E-3,,,,,-5.12400037E-3,408.000022173E-3,
,,,-5.12000034E-3,-799.999979790E-6,,,,,-5.12000034E-3,408.000022173E-3,
,,,-5.11600031E-3,-319.99999192E-6,,,,,-5.11600031E-3,400.00000596E-3,
,,,-5.11200028E-3,639.999983832E-6,,,,,-5.11200028E-3,408.000022173E-3,
,,,-5.10800024E-3,79.999997979E-6,,,,,-5.10800024E-3,408.000022173E-3,
,,,-5.10400021E-3,-959.999975748E-6,,,,,-5.10400021E-3,408.000022173E-3,
,,,-5.10000018E-3,-1.8399999E-3,,,,,-5.10000018E-3,400.00000596E-3,
,,,-5.09600015E-3,-2.1599999E-3,,,,,-5.09600015E-3,400.00000596E-3,
,,,-5.09200012E-3,-2.71999999E-3,,,,,-5.09200012E-3,400.00000596E-3,
,,,-5.08800056E-3,-3.51999979E-3,,,,,-5.08800056E-3,400.00000596E-3,
,,,-5.08400053E-3,-3.27999983E-3,,,,,-5.08400053E-3,400.00000596E-3,
,,,-5.08000050E-3,-3.92000005E-3,,,,,-5.08000050E-3,400.00000596E-3,
,,,-5.07600047E-3,-3.83999990E-3,,,,,-5.07600047E-3,400.00000596E-3,
,,,-5.07200044E-3,-4.31999983E-3,,,,,-5.07200044E-3,400.00000596E-3,
,,,-5.06800041E-3,-3.99999972E-3,,,,,-5.06800041E-3,392.00001955E-3,
,,,-5.06400038E-3,-3.99999972E-3,,,,,-5.06400038E-3,392.00001955E-3,
,,,-5.06000035E-3,-3.99999972E-3,,,,,-5.06000035E-3,392.00001955E-3,
,,,-5.05600031E-3,-4.47999965E-3,,,,,-5.05600031E-3,392.00001955E-3,
,,,-5.05200028E-3,-4.23999969E-3,,,,,-5.05200028E-3,392.00001955E-3,
,,,-5.04800025E-3,-4.16000001E-3,,,,,-5.04800025E-3,392.00001955E-3,
,,,-5.04400022E-3,-4.07999987E-3,,,,,-5.04400022E-3,392.00001955E-3,
,,,-5.04000019E-3,-4.31999983E-3,,,,,-5.04000019E-3,392.00001955E-3,
,,,-5.03600016E-3,-4.39999998E-3,,,,,-5.03600016E-3,392.00001955E-3,
,,,-5.03200013E-3,-4.07999987E-3,,,,,-5.03200013E-3,384.00000334E-3,
,,,-5.02800010E-3,-4.31999983E-3,,,,,-5.02800010E-3,384.00000334E-3,
,,,-5.02400054E-3,-4.39999998E-3,,,,,-5.02400054E-3,384.00000334E-3,
,,,-5.02000051E-3,-3.83999990E-3,,,,,-5.02000051E-3,384.00000334E-3,
,,,-5.01600048E-3,-4.16000001E-3,,,,,-5.01600048E-3,384.00000334E-3,
,,,-5.01200045E-3,-3.99999972E-3,,,,,-5.01200045E-3,384.00000334E-3,
,,,-5.00800041E-3,-3.43999988E-3,,,,,-5.00800041E-3,384.00000334E-3,
,,,-5.00400038E-3,-3.35999997E-3,,,,,-5.00400038E-3,384.00000334E-3,
,,,-5.00000035E-3,-3.12000001E-3,,,,,-5.00000035E-3,384.00000334E-3,
,,,-4.99600032E-3,-3.35999997E-3,,,,,-4.99600032E-3,376.00001693E-3,
,,,-4.99200029E-3,-2.5599999E-3,,,,,-4.99200029E-3,376.00001693E-3,
,,,-4.98800026E-3,-2.6399998E-3,,,,,-4.98800026E-3,376.00001693E-3,
,,,-4.98400023E-3,-1.2800000E-3,,,,,-4.98400023E-3,376.00001693E-3,
,,,-4.98000020E-3,-1.1199999E-3,,,,,-4.98000020E-3,376.00001693E-3,
,,,-4.97600017E-3,-1.1199999E-3,,,,,-4.97600017E-3,376.00001693E-3,
,,,-4.97200014E-3,-1.7599999E-3,,,,,-4.97200014E-3,376.00001693E-3,
,,,-4.96800011E-3,-1.6800000E-3,,,,,-4.96800011E-3,376.00001693E-3,
,,,-4.96400055E-3,-2.1599999E-3,,,,,-4.96400055E-3,376.00001693E-3,
,,,-4.96000051E-3,-2.3999999E-3,,,,,-4.96000051E-3,376.00001693E-3,
,,,-4.95600048E-3,-3.03999986E-3,,,,,-4.95600048E-3,368.00003052E-3,
,,,-4.95200045E-3,-3.12000001E-3,,,,,-4.95200045E-3,368.00003052E-3,
,,,-4.94800042E-3,-3.51999979E-3,,,,,-4.94800042E-3,376.00001693E-3,
,,,-4.94400039E-3,-3.75999999E-3,,,,,-4.94400039E-3,368.00003052E-3,
,,,-4.94000036E-3,-3.92000005E-3,,,,,-4.94000036E-3,368.00003052E-3,
,,,-4.93600033E-3,-4.07999987E-3,,,,,-4.93600033E-3,368.00003052E-3,
,,,-4.93200030E-3,-4.47999965E-3,,,,,-4.93200030E-3,368.00003052E-3,
,,,-4.92800027E-3,-3.99999972E-3,,,,,-4.92800027E-3,368.00003052E-3,
,,,-4.92400024E-3,-4.47999965E-3,,,,,-4.92400024E-3,360.00001431E-3,
,,,-4.92000021E-3,-3.83999990E-3,,,,,-4.92000021E-3,368.00003052E-3,
,,,-4.91600018E-3,-4.55999980E-3,,,,,-4.91600018E-3,360.00001431E-3,
,,,-4.91200015E-3,-4.55999980E-3,,,,,-4.91200015E-3,360.00001431E-3,
,,,-4.90800012E-3,-4.55999980E-3,,,,,-4.90800012E-3,360.00001431E-3,
,,,-4.90400055E-3,-4.47999965E-3,,,,,-4.90400055E-3,360.00001431E-3,
,,,-4.90000052E-3,-4.39999998E-3,,,,,-4.90000052E-3,360.00001431E-3,
,,,-4.89600049E-3,-4.39999998E-3,,,,,-4.89600049E-3,360.00001431E-3,
,,,-4.89200046E-3,-4.16000001E-3,,,,,-4.89200046E-3,352.00002789E-3,
,,,-4.88800043E-3,-4.55999980E-3,,,,,-4.88800043E-3,360.00001431E-3,
,,,-4.88400040E-3,-4.79999976E-3,,,,,-4.88400040E-3,360.00001431E-3,
,,,-4.88000037E-3,-4.47999965E-3,,,,,-4.88000037E-3,360.00001431E-3,
,,,-4.87600034E-3,-4.31999983E-3,,,,,-4.87600034E-3,352.00002789E-3,
,,,-4.87200031E-3,-4.72000008E-3,,,,,-4.87200031E-3,352.00002789E-3,
,,,-4.86800028E-3,-4.63999994E-3,,,,,-4.86800028E-3,352.00002789E-3,
,,,-4.86400025E-3,-4.39999998E-3,,,,,-4.86400025E-3,352.00002789E-3,
,,,-4.86000022E-3,-4.87999991E-3,,,,,-4.86000022E-3,352.00002789E-3,
,,,-4.85600019E-3,-4.63999994E-3,,,,,-4.85600019E-3,352.00002789E-3,
,,,-4.85200016E-3,-4.87999991E-3,,,,,-4.85200016E-3,352.00002789E-3,
,,,-4.84800013E-3,-4.47999965E-3,,,,,-4.84800013E-3,352.00002789E-3,
,,,-4.84400056E-3,-4.87999991E-3,,,,,-4.84400056E-3,344.00001168E-3,
,,,-4.84000053E-3,-4.07999987E-3,,,,,-4.84000053E-3,344.00001168E-3,
,,,-4.83600050E-3,-4.87999991E-3,,,,,-4.83600050E-3,344.00001168E-3,
,,,-4.83200047E-3,-4.96000005E-3,,,,,-4.83200047E-3,344.00001168E-3,
,,,-4.82800044E-3,-4.31999983E-3,,,,,-4.82800044E-3,344.00001168E-3,
,,,-4.82400041E-3,-4.72000008E-3,,,,,-4.82400041E-3,344.00001168E-3,
,,,-4.82000038E-3,-4.63999994E-3,,,,,-4.82000038E-3,344.00001168E-3,
,,,-4.81600035E-3,-4.39999998E-3,,,,,-4.81600035E-3,344.00001168E-3,
,,,-4.81200032E-3,-4.63999994E-3,,,,,-4.81200032E-3,344.00001168E-3,
,,,-4.80800029E-3,-3.99999972E-3,,,,,-4.80800029E-3,336.00002527E-3,
,,,-4.80400026E-3,-4.72000008E-3,,,,,-4.80400026E-3,336.00002527E-3,
,,,-4.80000023E-3,-5.03999973E-3,,,,,-4.80000023E-3,336.00002527E-3,
,,,-4.79600020E-3,-4.72000008E-3,,,,,-4.79600020E-3,336.00002527E-3,
,,,-4.79200017E-3,-4.96000005E-3,,,,,-4.79200017E-3,336.00002527E-3,
,,,-4.78800014E-3,-4.63999994E-3,,,,,-4.78800014E-3,336.00002527E-3,
,,,-4.78400011E-3,-4.96000005E-3,,,,,-4.78400011E-3,336.00002527E-3,
,,,-4.78000054E-3,-4.63999994E-3,,,,,-4.78000054E-3,336.00002527E-3,
,,,-4.77600051E-3,-4.72000008E-3,,,,,-4.77600051E-3,336.00002527E-3,
,,,-4.77200048E-3,-4.79999976E-3,,,,,-4.77200048E-3,328.00000906E-3,
,,,-4.76800045E-3,-4.63999994E-3,,,,,-4.76800045E-3,328.00000906E-3,
,,,-4.76400042E-3,-4.47999965E-3,,,,,-4.76400042E-3,328.00000906E-3,
,,,-4.76000039E-3,-4.96000005E-3,,,,,-4.76000039E-3,328.00000906E-3,
,,,-4.75600036E-3,-4.47999965E-3,,,,,-4.75600036E-3,328.00000906E-3,
,,,-4.75200033E-3,-4.16000001E-3,,,,,-4.75200033E-3,328.00000906E-3,
,,,-4.74800030E-3,-3.92000005E-3,,,,,-4.74800030E-3,328.00000906E-3,
,,,-4.74400027E-3,-4.79999976E-3,,,,,-4.74400027E-3,328.00000906E-3,
,,,-4.74000024E-3,-4.72000008E-3,,,,,-4.74000024E-3,328.00000906E-3,
,,,-4.73600021E-3,-4.47999965E-3,,,,,-4.73600021E-3,328.00000906E-3,
,,,-4.73200018E-3,-4.87999991E-3,,,,,-4.73200018E-3,328.00000906E-3,
,,,-4.72800015E-3,-5.03999973E-3,,,,,-4.72800015E-3,328.00000906E-3,
,,,-4.72400011E-3,-4.63999994E-3,,,,,-4.72400011E-3,320.00002265E-3,
,,,-4.72000055E-3,-4.39999998E-3,,,,,-4.72000055E-3,320.00002265E-3,
,,,-4.71600052E-3,-4.47999965E-3,,,,,-4.71600052E-3,320.00002265E-3,
,,,-4.71200049E-3,-4.72000008E-3,,,,,-4.71200049E-3,320.00002265E-3,
,,,-4.70800046E-3,-4.87999991E-3,,,,,-4.70800046E-3,320.00002265E-3,
,,,-4.70400043E-3,-4.16000001E-3,,,,,-4.70400043E-3,320.00002265E-3,
,,,-4.70000040E-3,-4.39999998E-3,,,,,-4.70000040E-3,320.00002265E-3,
,,,-4.69600037E-3,-4.39999998E-3,,,,,-4.69600037E-3,320.00002265E-3,
,,,-4.69200034E-3,-4.96000005E-3,,,,,-4.69200034E-3,312.00000644E-3,
,,,-4.68800031E-3,-4.55999980E-3,,,,,-4.68800031E-3,312.00000644E-3,
,,,-4.68400028E-3,-4.31999983E-3,,,,,-4.68400028E-3,312.00000644E-3,
,,,-4.68000025E-3,-4.63999994E-3,,,,,-4.68000025E-3,312.00000644E-3,
,,,-4.67600022E-3,-4.39999998E-3,,,,,-4.67600022E-3,312.00000644E-3,
,,,-4.67200018E-3,-4.63999994E-3,,,,,-4.67200018E-3,312.00000644E-3,
,,,-4.66800015E-3,-4.47999965E-3,,,,,-4.66800015E-3,312.00000644E-3,
,,,-4.66400012E-3,-4.31999983E-3,,,,,-4.66400012E-3,312.00000644E-3,
,,,-4.66000056E-3,-4.79999976E-3,,,,,-4.66000056E-3,304.00002003E-3,
,,,-4.65600053E-3,-4.87999991E-3,,,,,-4.65600053E-3,304.00002003E-3,
,,,-4.65200050E-3,-4.72000008E-3,,,,,-4.65200050E-3,304.00002003E-3,
,,,-4.64800047E-3,-4.23999969E-3,,,,,-4.64800047E-3,312.00000644E-3,
,,,-4.64400044E-3,-4.47999965E-3,,,,,-4.64400044E-3,304.00002003E-3,
,,,-4.64000041E-3,-4.55999980E-3,,,,,-4.64000041E-3,304.00002003E-3,
,,,-4.63600038E-3,-4.31999983E-3,,,,,-4.63600038E-3,304.00002003E-3,
,,,-4.63200035E-3,-3.99999972E-3,,,,,-4.63200035E-3,304.00002003E-3,
,,,-4.62800032E-3,-3.83999990E-3,,,,,-4.62800032E-3,304.00002003E-3,
,,,-4.62400028E-3,-3.99999972E-3,,,,,-4.62400028E-3,304.00002003E-3,
,,,-4.62000025E-3,-3.03999986E-3,,,,,-4.62000025E-3,296.00000381E-3,
,,,-4.61600022E-3,-3.51999979E-3,,,,,-4.61600022E-3,296.00000381E-3,
,,,-4.61200019E-3,-3.03999986E-3,,,,,-4.61200019E-3,296.00000381E-3,
,,,-4.60800016E-3,-2.6399998E-3,,,,,-4.60800016E-3,304.00002003E-3,
,,,-4.60400013E-3,-2.3999999E-3,,,,,-4.60400013E-3,296.00000381E-3,
,,,-4.60000010E-3,-2.4800000E-3,,,,,-4.60000010E-3,296.00000381E-3,
,,,-4.59600054E-3,-2.6399998E-3,,,,,-4.59600054E-3,296.00000381E-3,
,,,-4.59200051E-3,-2.95999995E-3,,,,,-4.59200051E-3,296.00000381E-3,
,,,-4.58800048E-3,-3.43999988E-3,,,,,-4.58800048E-3,296.00000381E-3,
,,,-4.58400045E-3,-3.83999990E-3,,,,,-4.58400045E-3,296.00000381E-3,
,,,-4.58000042E-3,-4.31999983E-3,,,,,-4.58000042E-3,288.00001740E-3,
,,,-4.57600038E-3,-3.99999972E-3,,,,,-4.57600038E-3,288.00001740E-3,
,,,-4.57200035E-3,-3.59999994E-3,,,,,-4.57200035E-3,296.00000381E-3,
,,,-4.56800032E-3,-3.92000005E-3,,,,,-4.56800032E-3,296.00000381E-3,
,,,-4.56400029E-3,-4.79999976E-3,,,,,-4.56400029E-3,288.00001740E-3,
,,,-4.56000026E-3,-4.07999987E-3,,,,,-4.56000026E-3,288.00001740E-3,
,,,-4.55600023E-3,-4.55999980E-3,,,,,-4.55600023E-3,288.00001740E-3,
,,,-4.55200020E-3,-4.31999983E-3,,,,,-4.55200020E-3,288.00001740E-3,
,,,-4.54800017E-3,-4.23999969E-3,,,,,-4.54800017E-3,288.00001740E-3,
,,,-4.54400014E-3,-4.47999965E-3,,,,,-4.54400014E-3,280.00000119E-3,
,,,-4.54000011E-3,-4.47999965E-3,,,,,-4.54000011E-3,280.00000119E-3,
,,,-4.53600055E-3,-3.99999972E-3,,,,,-4.53600055E-3,288.00001740E-3,
,,,-4.53200052E-3,-4.39999998E-3,,,,,-4.53200052E-3,280.00000119E-3,
,,,-4.52800049E-3,-4.31999983E-3,,,,,-4.52800049E-3,280.00000119E-3,
,,,-4.52400045E-3,-3.92000005E-3,,,,,-4.52400045E-3,280.00000119E-3,
,,,-4.52000042E-3,-4.07999987E-3,,,,,-4.52000042E-3,280.00000119E-3,
,,,-4.51600039E-3,-3.99999972E-3,,,,,-4.51600039E-3,280.00000119E-3,
,,,-4.51200036E-3,-3.92000005E-3,,,,,-4.51200036E-3,280.00000119E-3,
,,,-4.50800033E-3,-3.99999972E-3,,,,,-4.50800033E-3,280.00000119E-3,
,,,-4.50400030E-3,-3.67999985E-3,,,,,-4.50400030E-3,280.00000119E-3,
,,,-4.50000027E-3,-3.83999990E-3,,,,,-4.50000027E-3,272.00001478E-3,
,,,-4.49600024E-3,-3.43999988E-3,,,,,-4.49600024E-3,272.00001478E-3,
,,,-4.49200021E-3,-3.35999997E-3,,,,,-4.49200021E-3,272.00001478E-3,
,,,-4.48800018E-3,-3.03999986E-3,,,,,-4.48800018E-3,272.00001478E-3,
,,,-4.48400015E-3,-2.5599999E-3,,,,,-4.48400015E-3,272.00001478E-3,
,,,-4.48000012E-3,-2.3999999E-3,,,,,-4.48000012E-3,272.00001478E-3,
,,,-4.47600055E-3,-1.8399999E-3,,,,,-4.47600055E-3,272.00001478E-3,
,,,-4.47200052E-3,-879.999948665E-6,,,,,-4.47200052E-3,263.99999857E-3,
,,,-4.46800049E-3,159.99999596E-6,,,,,-4.46800049E-3,272.00001478E-3,
,,,-4.46400046E-3,1.1999999E-3,,,,,-4.46400046E-3,263.99999857E-3,
,,,-4.46000043E-3,2.4800000E-3,,,,,-4.46000043E-3,272.00001478E-3,
,,,-4.45600040E-3,1.9200000E-3,,,,,-4.45600040E-3,263.99999857E-3,
,,,-4.45200037E-3,1.0400000E-3,,,,,-4.45200037E-3,263.99999857E-3,
,,,-4.44800034E-3,-720.000010915E-6,,,,,-4.44800034E-3,263.99999857E-3,
,,,-4.44400031E-3,-1.9999999E-3,,,,,-4.44400031E-3,263.99999857E-3,
,,,-4.44000028E-3,-2.4800000E-3,,,,,-4.44000028E-3,263.99999857E-3,
,,,-4.43600025E-3,-2.71999999E-3,,,,,-4.43600025E-3,263.99999857E-3,
,,,-4.43200022E-3,-2.95999995E-3,,,,,-4.43200022E-3,256.00001216E-3,
,,,-4.42800019E-3,-3.59999994E-3,,,,,-4.42800019E-3,256.00001216E-3,
,,,-4.42400016E-3,-4.16000001E-3,,,,,-4.42400016E-3,256.00001216E-3,
,,,-4.42000013E-3,-4.31999983E-3,,,,,-4.42000013E-3,256.00001216E-3,
,,,-4.41600056E-3,-3.67999985E-3,,,,,-4.41600056E-3,256.00001216E-3,
,,,-4.41200053E-3,-4.39999998E-3,,,,,-4.41200053E-3,256.00001216E-3,
,,,-4.40800050E-3,-4.07999987E-3,,,,,-4.40800050E-3,256.00001216E-3,
,,,-4.40400047E-3,-4.31999983E-3,,,,,-4.40400047E-3,256.00001216E-3,
,,,-4.40000044E-3,-4.31999983E-3,,,,,-4.40000044E-3,256.00001216E-3,
,,,-4.39600041E-3,-4.23999969E-3,,,,,-4.39600041E-3,256.00001216E-3,
,,,-4.39200038E-3,-4.47999965E-3,,,,,-4.39200038E-3,256.00001216E-3,
,,,-4.38800035E-3,-5.11999987E-3,,,,,-4.38800035E-3,248.00001085E-3,
,,,-4.38400032E-3,-4.23999969E-3,,,,,-4.38400032E-3,256.00001216E-3,
,,,-4.38000029E-3,-4.72000008E-3,,,,,-4.38000029E-3,248.00001085E-3,
,,,-4.37600026E-3,-4.47999965E-3,,,,,-4.37600026E-3,256.00001216E-3,
,,,-4.37200023E-3,-4.39999998E-3,,,,,-4.37200023E-3,248.00001085E-3,
,,,-4.36800020E-3,-4.55999980E-3,,,,,-4.36800020E-3,248.00001085E-3,
,,,-4.36400017E-3,-3.99999972E-3,,,,,-4.36400017E-3,248.00001085E-3,
,,,-4.36000014E-3,-4.72000008E-3,,,,,-4.36000014E-3,248.00001085E-3,
,,,-4.35600011E-3,-4.55999980E-3,,,,,-4.35600011E-3,248.00001085E-3,
,,,-4.35200054E-3,-4.96000005E-3,,,,,-4.35200054E-3,248.00001085E-3,
,,,-4.34800051E-3,-4.55999980E-3,,,,,-4.34800051E-3,240.00000954E-3,
,,,-4.34400048E-3,-4.39999998E-3,,,,,-4.34400048E-3,240.00000954E-3,
,,,-4.34000045E-3,-4.55999980E-3,,,,,-4.34000045E-3,240.00000954E-3,
,,,-4.33600042E-3,-4.79999976E-3,,,,,-4.33600042E-3,240.00000954E-3,
,,,-4.33200039E-3,-4.55999980E-3,,,,,-4.33200039E-3,240.00000954E-3,
,,,-4.32800036E-3,-4.07999987E-3,,,,,-4.32800036E-3,240.00000954E-3,
,,,-4.32400033E-3,-4.72000008E-3,,,,,-4.32400033E-3,240.00000954E-3,
,,,-4.32000030E-3,-4.72000008E-3,,,,,-4.32000030E-3,240.00000954E-3,
,,,-4.31600027E-3,-4.47999965E-3,,,,,-4.31600027E-3,240.00000954E-3,
,,,-4.31200024E-3,-4.72000008E-3,,,,,-4.31200024E-3,240.00000954E-3,
,,,-4.30800021E-3,-4.47999965E-3,,,,,-4.30800021E-3,240.00000954E-3,
,,,-4.30400018E-3,-4.79999976E-3,,,,,-4.30400018E-3,232.00000823E-3,
,,,-4.30000015E-3,-4.96000005E-3,,,,,-4.30000015E-3,232.00000823E-3,
,,,-4.29600012E-3,-4.72000008E-3,,,,,-4.29600012E-3,232.00000823E-3,
,,,-4.29200055E-3,-4.72000008E-3,,,,,-4.29200055E-3,232.00000823E-3,
,,,-4.28800052E-3,-4.72000008E-3,,,,,-4.28800052E-3,232.00000823E-3,
,,,-4.28400049E-3,-4.72000008E-3,,,,,-4.28400049E-3,232.00000823E-3,
,,,-4.28000046E-3,-4.72000008E-3,,,,,-4.28000046E-3,232.00000823E-3,
,,,-4.27600043E-3,-4.96000005E-3,,,,,-4.27600043E-3,224.00000691E-3,
,,,-4.27200040E-3,-4.47999965E-3,,,,,-4.27200040E-3,224.00000691E-3,
,,,-4.26800037E-3,-4.47999965E-3,,,,,-4.26800037E-3,232.00000823E-3,
,,,-4.26400034E-3,-4.96000005E-3,,,,,-4.26400034E-3,224.00000691E-3,
,,,-4.26000031E-3,-4.96000005E-3,,,,,-4.26000031E-3,224.00000691E-3,
,,,-4.25600028E-3,-4.07999987E-3,,,,,-4.25600028E-3,224.00000691E-3,
,,,-4.25200025E-3,-4.79999976E-3,,,,,-4.25200025E-3,224.00000691E-3,
,,,-4.24800022E-3,-4.96000005E-3,,,,,-4.24800022E-3,224.00000691E-3,
,,,-4.24400019E-3,-4.47999965E-3,,,,,-4.24400019E-3,224.00000691E-3,
