03_lab/data/optical-cavity-day3/backup/fwhm_L26cm_mar26_340.csv

Record Length,2500,Points,-23.76000024E-3,-4.16000001E-3,,Record Length,2500,Points,-23.76000024E-3,658.000051975E-3,
Sample Interval,19.9999995E-6,s,-23.74000102E-3,-4.16000001E-3,,Sample Interval,19.9999995E-6,s,-23.74000102E-3,658.000051975E-3,
Trigger Point,1.1880001E3,Samples,-23.71999994E-3,-3.67999985E-3,,Trigger Point,1.1880001E3,Samples,-23.71999994E-3,656.000018120E-3,
,,,-23.70000072E-3,-4.31999983E-3,,,,,-23.70000072E-3,656.000018120E-3,
,,,-23.67999963E-3,-4.47999965E-3,,,,,-23.67999963E-3,656.000018120E-3,
,,,-23.66000041E-3,-3.99999972E-3,,,,,-23.66000041E-3,656.000018120E-3,
Source,CH1,,-23.63999933E-3,-3.92000005E-3,,Source,CH2,,-23.63999933E-3,656.000018120E-3,
Vertical Units,Volts,,-23.62000011E-3,-4.07999987E-3,,Vertical Units,Volts,,-23.62000011E-3,656.000018120E-3,
Vertical Scale,1.9999999E-3,,-23.60000089E-3,-3.67999985E-3,,Vertical Scale,50.00000237E-3,,-23.60000089E-3,654.000043869E-3,
Vertical Offset,0,,-23.57999980E-3,-3.59999994E-3,,Vertical Offset,0,,-23.57999980E-3,656.000018120E-3,
Horizontal Units,s,,-23.56000058E-3,-3.99999972E-3,,Horizontal Units,s,,-23.56000058E-3,654.000043869E-3,
Horizontal Scale,4.99999987E-3,,-23.53999950E-3,-3.99999972E-3,,Horizontal Scale,4.99999987E-3,,-23.53999950E-3,654.000043869E-3,
Pt Fmt,Y,,-23.52000028E-3,-4.47999965E-3,,Pt Fmt,Y,,-23.52000028E-3,654.000043869E-3,
Yzero,0.0,,-23.50000106E-3,-4.23999969E-3,,Yzero,-10.2000000,,-23.50000106E-3,654.000043869E-3,
Probe Atten,1.000000,,-23.47999997E-3,-4.16000001E-3,,Probe Atten,1.000000,,-23.47999997E-3,652.000010014E-3,
,,,-23.46000075E-3,-3.83999990E-3,,,,,-23.46000075E-3,654.000043869E-3,
Note,TDS 1002B - 3:40:20 PM   3/26/2018,,-23.43999967E-3,-4.31999983E-3,,Note,TDS 1002B - 3:40:20 PM   3/26/2018,,-23.43999967E-3,652.000010014E-3,
,,,-23.42000045E-3,-4.31999983E-3,,,,,-23.42000045E-3,652.000010014E-3,
,,,-23.39999937E-3,-3.99999972E-3,,,,,-23.39999937E-3,652.000010014E-3,
,,,-23.38000014E-3,-4.72000008E-3,,,,,-23.38000014E-3,652.000010014E-3,
,,,-23.36000092E-3,-3.59999994E-3,,,,,-23.36000092E-3,652.000010014E-3,
,,,-23.33999984E-3,-3.75999999E-3,,,,,-23.33999984E-3,652.000010014E-3,
,,,-23.32000062E-3,-3.92000005E-3,,,,,-23.32000062E-3,650.000035763E-3,
,,,-23.29999954E-3,-4.47999965E-3,,,,,-23.29999954E-3,650.000035763E-3,
,,,-23.28000031E-3,-3.92000005E-3,,,,,-23.28000031E-3,650.000035763E-3,
,,,-23.26000109E-3,-4.16000001E-3,,,,,-23.26000109E-3,650.000035763E-3,
,,,-23.24000001E-3,-3.83999990E-3,,,,,-23.24000001E-3,650.000035763E-3,
,,,-23.22000079E-3,-4.47999965E-3,,,,,-23.22000079E-3,650.000035763E-3,
,,,-23.19999970E-3,-3.92000005E-3,,,,,-23.19999970E-3,650.000035763E-3,
,,,-23.18000048E-3,-4.23999969E-3,,,,,-23.18000048E-3,648.000001907E-3,
,,,-23.15999940E-3,-3.99999972E-3,,,,,-23.15999940E-3,650.000035763E-3,
,,,-23.14000018E-3,-4.47999965E-3,,,,,-23.14000018E-3,648.000001907E-3,
,,,-23.12000096E-3,-4.23999969E-3,,,,,-23.12000096E-3,648.000001907E-3,
,,,-23.09999987E-3,-4.07999987E-3,,,,,-23.09999987E-3,648.000001907E-3,
,,,-23.08000065E-3,-4.63999994E-3,,,,,-23.08000065E-3,648.000001907E-3,
,,,-23.05999957E-3,-3.67999985E-3,,,,,-23.05999957E-3,650.000035763E-3,
,,,-23.04000035E-3,-3.75999999E-3,,,,,-23.04000035E-3,648.000001907E-3,
,,,-23.02000113E-3,-4.16000001E-3,,,,,-23.02000113E-3,648.000001907E-3,
,,,-23.00000004E-3,-4.47999965E-3,,,,,-23.00000004E-3,646.000027657E-3,
,,,-22.98000082E-3,-4.39999998E-3,,,,,-22.98000082E-3,646.000027657E-3,
,,,-22.95999974E-3,-4.23999969E-3,,,,,-22.95999974E-3,646.000027657E-3,
,,,-22.94000052E-3,-4.39999998E-3,,,,,-22.94000052E-3,648.000001907E-3,
,,,-22.91999944E-3,-3.51999979E-3,,,,,-22.91999944E-3,646.000027657E-3,
,,,-22.90000021E-3,-4.39999998E-3,,,,,-22.90000021E-3,644.000053406E-3,
,,,-22.88000099E-3,-3.75999999E-3,,,,,-22.88000099E-3,646.000027657E-3,
,,,-22.85999991E-3,-4.63999994E-3,,,,,-22.85999991E-3,646.000027657E-3,
,,,-22.84000069E-3,-3.83999990E-3,,,,,-22.84000069E-3,646.000027657E-3,
,,,-22.81999961E-3,-4.07999987E-3,,,,,-22.81999961E-3,644.000053406E-3,
,,,-22.80000038E-3,-4.55999980E-3,,,,,-22.80000038E-3,646.000027657E-3,
,,,-22.78000116E-3,-4.16000001E-3,,,,,-22.78000116E-3,644.000053406E-3,
,,,-22.76000008E-3,-3.99999972E-3,,,,,-22.76000008E-3,644.000053406E-3,
,,,-22.74000086E-3,-3.83999990E-3,,,,,-22.74000086E-3,644.000053406E-3,
,,,-22.71999978E-3,-3.67999985E-3,,,,,-22.71999978E-3,644.000053406E-3,
,,,-22.70000055E-3,-3.12000001E-3,,,,,-22.70000055E-3,642.000019550E-3,
,,,-22.67999947E-3,-4.23999969E-3,,,,,-22.67999947E-3,644.000053406E-3,
,,,-22.66000025E-3,-3.59999994E-3,,,,,-22.66000025E-3,644.000053406E-3,
,,,-22.64000103E-3,-3.83999990E-3,,,,,-22.64000103E-3,642.000019550E-3,
,,,-22.61999995E-3,-3.27999983E-3,,,,,-22.61999995E-3,642.000019550E-3,
,,,-22.60000072E-3,-3.75999999E-3,,,,,-22.60000072E-3,642.000019550E-3,
,,,-22.57999964E-3,-3.59999994E-3,,,,,-22.57999964E-3,642.000019550E-3,
,,,-22.56000042E-3,-3.19999992E-3,,,,,-22.56000042E-3,642.000019550E-3,
,,,-22.54000120E-3,-3.99999972E-3,,,,,-22.54000120E-3,640.000045300E-3,
,,,-22.52000012E-3,-3.35999997E-3,,,,,-22.52000012E-3,642.000019550E-3,
,,,-22.50000089E-3,-3.99999972E-3,,,,,-22.50000089E-3,642.000019550E-3,
,,,-22.47999981E-3,-2.79999990E-3,,,,,-22.47999981E-3,640.000045300E-3,
,,,-22.46000059E-3,-3.67999985E-3,,,,,-22.46000059E-3,640.000045300E-3,
,,,-22.43999951E-3,-3.35999997E-3,,,,,-22.43999951E-3,640.000045300E-3,
,,,-22.42000028E-3,-3.51999979E-3,,,,,-22.42000028E-3,640.000045300E-3,
,,,-22.40000106E-3,-3.27999983E-3,,,,,-22.40000106E-3,640.000045300E-3,
,,,-22.37999998E-3,-3.51999979E-3,,,,,-22.37999998E-3,640.000045300E-3,
,,,-22.36000076E-3,-3.51999979E-3,,,,,-22.36000076E-3,638.000011444E-3,
,,,-22.33999968E-3,-2.5599999E-3,,,,,-22.33999968E-3,640.000045300E-3,
,,,-22.32000045E-3,-3.43999988E-3,,,,,-22.32000045E-3,640.000045300E-3,
,,,-22.29999937E-3,-3.35999997E-3,,,,,-22.29999937E-3,640.000045300E-3,
,,,-22.28000015E-3,-3.43999988E-3,,,,,-22.28000015E-3,638.000011444E-3,
,,,-22.26000093E-3,-2.71999999E-3,,,,,-22.26000093E-3,638.000011444E-3,
,,,-22.23999985E-3,-3.03999986E-3,,,,,-22.23999985E-3,638.000011444E-3,
,,,-22.22000062E-3,-3.35999997E-3,,,,,-22.22000062E-3,636.000037193E-3,
,,,-22.19999954E-3,-3.75999999E-3,,,,,-22.19999954E-3,638.000011444E-3,
,,,-22.18000032E-3,-3.43999988E-3,,,,,-22.18000032E-3,636.000037193E-3,
,,,-22.16000110E-3,-4.31999983E-3,,,,,-22.16000110E-3,636.000037193E-3,
,,,-22.14000002E-3,-2.79999990E-3,,,,,-22.14000002E-3,636.000037193E-3,
,,,-22.12000079E-3,-3.59999994E-3,,,,,-22.12000079E-3,636.000037193E-3,
,,,-22.09999971E-3,-3.92000005E-3,,,,,-22.09999971E-3,636.000037193E-3,
,,,-22.08000049E-3,-3.67999985E-3,,,,,-22.08000049E-3,636.000037193E-3,
,,,-22.05999941E-3,-3.83999990E-3,,,,,-22.05999941E-3,636.000037193E-3,
,,,-22.04000019E-3,-3.35999997E-3,,,,,-22.04000019E-3,634.000003338E-3,
,,,-22.02000096E-3,-4.07999987E-3,,,,,-22.02000096E-3,634.000003338E-3,
,,,-21.99999988E-3,-3.51999979E-3,,,,,-21.99999988E-3,634.000003338E-3,
,,,-21.98000066E-3,-3.35999997E-3,,,,,-21.98000066E-3,636.000037193E-3,
,,,-21.95999958E-3,-3.83999990E-3,,,,,-21.95999958E-3,634.000003338E-3,
,,,-21.94000036E-3,-3.59999994E-3,,,,,-21.94000036E-3,634.000003338E-3,
,,,-21.92000113E-3,-3.43999988E-3,,,,,-21.92000113E-3,632.000029087E-3,
,,,-21.90000005E-3,-3.27999983E-3,,,,,-21.90000005E-3,634.000003338E-3,
,,,-21.88000083E-3,-3.99999972E-3,,,,,-21.88000083E-3,632.000029087E-3,
,,,-21.85999975E-3,-3.51999979E-3,,,,,-21.85999975E-3,632.000029087E-3,
,,,-21.84000053E-3,-3.03999986E-3,,,,,-21.84000053E-3,634.000003338E-3,
,,,-21.81999944E-3,-3.51999979E-3,,,,,-21.81999944E-3,632.000029087E-3,
,,,-21.80000022E-3,-3.83999990E-3,,,,,-21.80000022E-3,632.000029087E-3,
,,,-21.78000100E-3,-3.67999985E-3,,,,,-21.78000100E-3,632.000029087E-3,
,,,-21.75999992E-3,-3.35999997E-3,,,,,-21.75999992E-3,632.000029087E-3,
,,,-21.74000069E-3,-3.19999992E-3,,,,,-21.74000069E-3,632.000029087E-3,
,,,-21.71999961E-3,-3.67999985E-3,,,,,-21.71999961E-3,632.000029087E-3,
,,,-21.70000039E-3,-3.19999992E-3,,,,,-21.70000039E-3,632.000029087E-3,
,,,-21.68000117E-3,-3.12000001E-3,,,,,-21.68000117E-3,632.000029087E-3,
,,,-21.66000009E-3,-3.27999983E-3,,,,,-21.66000009E-3,630.000054836E-3,
,,,-21.64000086E-3,-3.03999986E-3,,,,,-21.64000086E-3,630.000054836E-3,
,,,-21.61999978E-3,-3.43999988E-3,,,,,-21.61999978E-3,630.000054836E-3,
,,,-21.60000056E-3,-3.19999992E-3,,,,,-21.60000056E-3,630.000054836E-3,
,,,-21.57999948E-3,-3.99999972E-3,,,,,-21.57999948E-3,630.000054836E-3,
,,,-21.56000026E-3,-3.43999988E-3,,,,,-21.56000026E-3,630.000054836E-3,
,,,-21.54000103E-3,-3.03999986E-3,,,,,-21.54000103E-3,630.000054836E-3,
,,,-21.51999995E-3,-2.88000004E-3,,,,,-21.51999995E-3,628.000020981E-3,
,,,-21.50000073E-3,-3.51999979E-3,,,,,-21.50000073E-3,630.000054836E-3,
,,,-21.47999965E-3,-3.19999992E-3,,,,,-21.47999965E-3,628.000020981E-3,
,,,-21.46000043E-3,-3.43999988E-3,,,,,-21.46000043E-3,628.000020981E-3,
,,,-21.44000120E-3,-2.88000004E-3,,,,,-21.44000120E-3,628.000020981E-3,
,,,-21.42000012E-3,-2.88000004E-3,,,,,-21.42000012E-3,630.000054836E-3,
,,,-21.40000090E-3,-3.12000001E-3,,,,,-21.40000090E-3,626.000046730E-3,
,,,-21.37999982E-3,-2.4800000E-3,,,,,-21.37999982E-3,628.000020981E-3,
,,,-21.36000060E-3,-3.03999986E-3,,,,,-21.36000060E-3,628.000020981E-3,
,,,-21.33999951E-3,-2.0800000E-3,,,,,-21.33999951E-3,626.000046730E-3,
,,,-21.32000029E-3,-1.9999999E-3,,,,,-21.32000029E-3,626.000046730E-3,
,,,-21.30000107E-3,-2.0800000E-3,,,,,-21.30000107E-3,626.000046730E-3,
,,,-21.27999999E-3,-1.8399999E-3,,,,,-21.27999999E-3,626.000046730E-3,
,,,-21.26000077E-3,-1.7599999E-3,,,,,-21.26000077E-3,626.000046730E-3,
,,,-21.23999968E-3,-1.1999999E-3,,,,,-21.23999968E-3,626.000046730E-3,
,,,-21.22000046E-3,-1.7599999E-3,,,,,-21.22000046E-3,624.000012875E-3,
,,,-21.20000124E-3,-879.999948665E-6,,,,,-21.20000124E-3,626.000046730E-3,
,,,-21.18000016E-3,-559.999956749E-6,,,,,-21.18000016E-3,624.000012875E-3,
,,,-21.16000094E-3,-879.999948665E-6,,,,,-21.16000094E-3,624.000012875E-3,
,,,-21.13999985E-3,-479.999987874E-6,,,,,-21.13999985E-3,622.000038624E-3,
,,,-21.12000063E-3,-319.99999192E-6,,,,,-21.12000063E-3,622.000038624E-3,
,,,-21.09999955E-3,-879.999948665E-6,,,,,-21.09999955E-3,624.000012875E-3,
,,,-21.08000033E-3,79.999997979E-6,,,,,-21.08000033E-3,622.000038624E-3,
,,,-21.06000111E-3,-799.999979790E-6,,,,,-21.06000111E-3,622.000038624E-3,
,,,-21.04000002E-3,319.99999192E-6,,,,,-21.04000002E-3,620.000004768E-3,
,,,-21.02000080E-3,-639.999983832E-6,,,,,-21.02000080E-3,622.000038624E-3,
,,,-20.99999972E-3,720.000010915E-6,,,,,-20.99999972E-3,622.000038624E-3,
,,,-20.98000050E-3,-879.999948665E-6,,,,,-20.98000050E-3,622.000038624E-3,
,,,-20.95999941E-3,-720.000010915E-6,,,,,-20.95999941E-3,622.000038624E-3,
,,,-20.94000019E-3,0.0,,,,,-20.94000019E-3,622.000038624E-3,
,,,-20.92000097E-3,-1.1999999E-3,,,,,-20.92000097E-3,620.000004768E-3,
,,,-20.89999989E-3,-879.999948665E-6,,,,,-20.89999989E-3,622.000038624E-3,
,,,-20.88000067E-3,-1.5199999E-3,,,,,-20.88000067E-3,620.000004768E-3,
,,,-20.85999958E-3,-1.6000000E-3,,,,,-20.85999958E-3,620.000004768E-3,
,,,-20.84000036E-3,-1.6800000E-3,,,,,-20.84000036E-3,618.000030518E-3,
,,,-20.82000114E-3,-2.1599999E-3,,,,,-20.82000114E-3,620.000004768E-3,
,,,-20.80000006E-3,-2.0800000E-3,,,,,-20.80000006E-3,620.000004768E-3,
,,,-20.78000084E-3,-2.88000004E-3,,,,,-20.78000084E-3,618.000030518E-3,
,,,-20.75999975E-3,-2.88000004E-3,,,,,-20.75999975E-3,618.000030518E-3,
,,,-20.74000053E-3,-2.6399998E-3,,,,,-20.74000053E-3,620.000004768E-3,
,,,-20.71999945E-3,-3.03999986E-3,,,,,-20.71999945E-3,618.000030518E-3,
,,,-20.70000023E-3,-2.3200000E-3,,,,,-20.70000023E-3,618.000030518E-3,
,,,-20.68000101E-3,-2.5599999E-3,,,,,-20.68000101E-3,618.000030518E-3,
,,,-20.65999992E-3,-3.59999994E-3,,,,,-20.65999992E-3,618.000030518E-3,
,,,-20.64000070E-3,-2.6399998E-3,,,,,-20.64000070E-3,616.000056267E-3,
,,,-20.61999962E-3,-3.03999986E-3,,,,,-20.61999962E-3,618.000030518E-3,
,,,-20.60000040E-3,-3.51999979E-3,,,,,-20.60000040E-3,616.000056267E-3,
,,,-20.58000118E-3,-3.19999992E-3,,,,,-20.58000118E-3,616.000056267E-3,
,,,-20.56000009E-3,-2.88000004E-3,,,,,-20.56000009E-3,616.000056267E-3,
,,,-20.54000087E-3,-3.03999986E-3,,,,,-20.54000087E-3,616.000056267E-3,
,,,-20.51999979E-3,-3.19999992E-3,,,,,-20.51999979E-3,616.000056267E-3,
,,,-20.50000057E-3,-3.27999983E-3,,,,,-20.50000057E-3,614.000022411E-3,
,,,-20.47999948E-3,-3.92000005E-3,,,,,-20.47999948E-3,616.000056267E-3,
,,,-20.46000026E-3,-3.43999988E-3,,,,,-20.46000026E-3,616.000056267E-3,
,,,-20.44000104E-3,-3.03999986E-3,,,,,-20.44000104E-3,614.000022411E-3,
,,,-20.41999996E-3,-3.75999999E-3,,,,,-20.41999996E-3,614.000022411E-3,
,,,-20.40000074E-3,-3.67999985E-3,,,,,-20.40000074E-3,614.000022411E-3,
,,,-20.37999965E-3,-3.75999999E-3,,,,,-20.37999965E-3,614.000022411E-3,
,,,-20.36000043E-3,-3.83999990E-3,,,,,-20.36000043E-3,614.000022411E-3,
,,,-20.34000121E-3,-3.67999985E-3,,,,,-20.34000121E-3,614.000022411E-3,
,,,-20.32000013E-3,-3.99999972E-3,,,,,-20.32000013E-3,614.000022411E-3,
,,,-20.30000091E-3,-3.12000001E-3,,,,,-20.30000091E-3,614.000022411E-3,
,,,-20.27999982E-3,-3.92000005E-3,,,,,-20.27999982E-3,612.000048161E-3,
,,,-20.26000060E-3,-4.07999987E-3,,,,,-20.26000060E-3,612.000048161E-3,
,,,-20.23999952E-3,-3.92000005E-3,,,,,-20.23999952E-3,612.000048161E-3,
,,,-20.22000030E-3,-3.51999979E-3,,,,,-20.22000030E-3,612.000048161E-3,
,,,-20.20000108E-3,-4.23999969E-3,,,,,-20.20000108E-3,612.000048161E-3,
,,,-20.17999999E-3,-3.99999972E-3,,,,,-20.17999999E-3,610.000014305E-3,
,,,-20.16000077E-3,-3.92000005E-3,,,,,-20.16000077E-3,612.000048161E-3,
,,,-20.13999969E-3,-3.99999972E-3,,,,,-20.13999969E-3,612.000048161E-3,
,,,-20.12000047E-3,-3.83999990E-3,,,,,-20.12000047E-3,612.000048161E-3,
,,,-20.10000125E-3,-3.92000005E-3,,,,,-20.10000125E-3,612.000048161E-3,
,,,-20.0800002E-3,-3.83999990E-3,,,,,-20.0800002E-3,610.000014305E-3,
,,,-20.0600009E-3,-3.83999990E-3,,,,,-20.0600009E-3,610.000014305E-3,
,,,-20.0399999E-3,-3.59999994E-3,,,,,-20.0399999E-3,610.000014305E-3,
,,,-20.0200006E-3,-3.99999972E-3,,,,,-20.0200006E-3,610.000014305E-3,
,,,-19.9999996E-3,-3.75999999E-3,,,,,-19.9999996E-3,610.000014305E-3,
,,,-19.9800003E-3,-4.63999994E-3,,,,,-19.9800003E-3,610.000014305E-3,
,,,-19.9600011E-3,-4.31999983E-3,,,,,-19.9600011E-3,610.000014305E-3,
,,,-19.9400000E-3,-4.07999987E-3,,,,,-19.9400000E-3,608.000040054E-3,
,,,-19.9200008E-3,-4.31999983E-3,,,,,-19.9200008E-3,610.000014305E-3,
,,,-19.8999997E-3,-3.92000005E-3,,,,,-19.8999997E-3,608.000040054E-3,
,,,-19.8800005E-3,-3.99999972E-3,,,,,-19.8800005E-3,608.000040054E-3,
,,,-19.8599994E-3,-3.75999999E-3,,,,,-19.8599994E-3,606.000006199E-3,
,,,-19.8400002E-3,-4.31999983E-3,,,,,-19.8400002E-3,604.000031948E-3,
,,,-19.8200010E-3,-3.67999985E-3,,,,,-19.8200010E-3,606.000006199E-3,
,,,-19.7999999E-3,-4.07999987E-3,,,,,-19.7999999E-3,606.000006199E-3,
,,,-19.7800007E-3,-3.99999972E-3,,,,,-19.7800007E-3,604.000031948E-3,
,,,-19.7599996E-3,-4.31999983E-3,,,,,-19.7599996E-3,606.000006199E-3,
,,,-19.7400004E-3,-3.59999994E-3,,,,,-19.7400004E-3,606.000006199E-3,
,,,-19.7200011E-3,-4.31999983E-3,,,,,-19.7200011E-3,604.000031948E-3,
,,,-19.7000001E-3,-4.16000001E-3,,,,,-19.7000001E-3,606.000006199E-3,
,,,-19.6800008E-3,-3.99999972E-3,,,,,-19.6800008E-3,604.000031948E-3,
,,,-19.6599998E-3,-4.23999969E-3,,,,,-19.6599998E-3,604.000031948E-3,
,,,-19.6400005E-3,-3.67999985E-3,,,,,-19.6400005E-3,604.000031948E-3,
,,,-19.6199995E-3,-3.99999972E-3,,,,,-19.6199995E-3,602.000057697E-3,
,,,-19.6000002E-3,-3.99999972E-3,,,,,-19.6000002E-3,604.000031948E-3,
,,,-19.5800010E-3,-3.99999972E-3,,,,,-19.5800010E-3,602.000057697E-3,
,,,-19.5599999E-3,-3.59999994E-3,,,,,-19.5599999E-3,604.000031948E-3,
,,,-19.5400007E-3,-3.51999979E-3,,,,,-19.5400007E-3,602.000057697E-3,
,,,-19.5199996E-3,-3.83999990E-3,,,,,-19.5199996E-3,604.000031948E-3,
,,,-19.5000004E-3,-3.99999972E-3,,,,,-19.5000004E-3,602.000057697E-3,
,,,-19.4800012E-3,-3.83999990E-3,,,,,-19.4800012E-3,602.000057697E-3,
,,,-19.4600001E-3,-3.99999972E-3,,,,,-19.4600001E-3,602.000057697E-3,
,,,-19.4400009E-3,-3.67999985E-3,,,,,-19.4400009E-3,602.000057697E-3,
,,,-19.4199998E-3,-3.59999994E-3,,,,,-19.4199998E-3,602.000057697E-3,
,,,-19.4000006E-3,-3.75999999E-3,,,,,-19.4000006E-3,602.000057697E-3,
,,,-19.3799995E-3,-3.03999986E-3,,,,,-19.3799995E-3,602.000057697E-3,
,,,-19.3600003E-3,-3.51999979E-3,,,,,-19.3600003E-3,600.000023842E-3,
,,,-19.3400010E-3,-3.03999986E-3,,,,,-19.3400010E-3,600.000023842E-3,
,,,-19.3200000E-3,-3.67999985E-3,,,,,-19.3200000E-3,600.000023842E-3,
,,,-19.3000007E-3,-3.03999986E-3,,,,,-19.3000007E-3,600.000023842E-3,
,,,-19.2799997E-3,-2.71999999E-3,,,,,-19.2799997E-3,598.000049591E-3,
,,,-19.2600004E-3,-2.88000004E-3,,,,,-19.2600004E-3,600.000023842E-3,
,,,-19.2400012E-3,-2.79999990E-3,,,,,-19.2400012E-3,596.000015736E-3,
,,,-19.2200001E-3,-2.88000004E-3,,,,,-19.2200001E-3,598.000049591E-3,
,,,-19.2000009E-3,-2.5599999E-3,,,,,-19.2000009E-3,598.000049591E-3,
,,,-19.1799998E-3,-2.6399998E-3,,,,,-19.1799998E-3,598.000049591E-3,
,,,-19.1600006E-3,-2.3200000E-3,,,,,-19.1600006E-3,598.000049591E-3,
,,,-19.1399995E-3,-2.6399998E-3,,,,,-19.1399995E-3,596.000015736E-3,
,,,-19.1200003E-3,-2.3200000E-3,,,,,-19.1200003E-3,598.000049591E-3,
,,,-19.1000011E-3,-2.3200000E-3,,,,,-19.1000011E-3,598.000049591E-3,
,,,-19.0800000E-3,-2.3999999E-3,,,,,-19.0800000E-3,598.000049591E-3,
,,,-19.0600008E-3,-3.19999992E-3,,,,,-19.0600008E-3,594.000041485E-3,
,,,-19.0399997E-3,-2.79999990E-3,,,,,-19.0399997E-3,596.000015736E-3,
,,,-19.0200005E-3,-2.6399998E-3,,,,,-19.0200005E-3,596.000015736E-3,
,,,-19.0000013E-3,-2.6399998E-3,,,,,-19.0000013E-3,596.000015736E-3,
,,,-18.9800002E-3,-2.6399998E-3,,,,,-18.9800002E-3,596.000015736E-3,
,,,-18.9600009E-3,-3.03999986E-3,,,,,-18.9600009E-3,596.000015736E-3,
,,,-18.9399999E-3,-2.71999999E-3,,,,,-18.9399999E-3,594.000041485E-3,
,,,-18.9200006E-3,-2.79999990E-3,,,,,-18.9200006E-3,594.000041485E-3,
,,,-18.8999996E-3,-3.03999986E-3,,,,,-18.8999996E-3,594.000041485E-3,
,,,-18.8800003E-3,-3.27999983E-3,,,,,-18.8800003E-3,594.000041485E-3,
,,,-18.8600011E-3,-3.35999997E-3,,,,,-18.8600011E-3,594.000041485E-3,
,,,-18.8400000E-3,-3.12000001E-3,,,,,-18.8400000E-3,594.000041485E-3,
,,,-18.8200008E-3,-3.12000001E-3,,,,,-18.8200008E-3,594.000041485E-3,
,,,-18.7999997E-3,-3.03999986E-3,,,,,-18.7999997E-3,592.000007629E-3,
,,,-18.7800005E-3,-3.43999988E-3,,,,,-18.7800005E-3,592.000007629E-3,
,,,-18.7600013E-3,-3.03999986E-3,,,,,-18.7600013E-3,592.000007629E-3,
,,,-18.7400002E-3,-3.19999992E-3,,,,,-18.7400002E-3,592.000007629E-3,
,,,-18.7200010E-3,-3.03999986E-3,,,,,-18.7200010E-3,592.000007629E-3,
,,,-18.6999999E-3,-3.19999992E-3,,,,,-18.6999999E-3,592.000007629E-3,
,,,-18.6800007E-3,-3.03999986E-3,,,,,-18.6800007E-3,592.000007629E-3,
,,,-18.6599996E-3,-3.43999988E-3,,,,,-18.6599996E-3,592.000007629E-3,
,,,-18.6400004E-3,-3.43999988E-3,,,,,-18.6400004E-3,592.000007629E-3,
,,,-18.6200012E-3,-3.03999986E-3,,,,,-18.6200012E-3,592.000007629E-3,
,,,-18.6000001E-3,-3.35999997E-3,,,,,-18.6000001E-3,590.000033379E-3,
,,,-18.5800008E-3,-2.88000004E-3,,,,,-18.5800008E-3,590.000033379E-3,
,,,-18.5599998E-3,-3.59999994E-3,,,,,-18.5599998E-3,587.999999523E-3,
,,,-18.5400005E-3,-2.6399998E-3,,,,,-18.5400005E-3,590.000033379E-3,
,,,-18.5199995E-3,-3.03999986E-3,,,,,-18.5199995E-3,590.000033379E-3,
,,,-18.5000002E-3,-2.5599999E-3,,,,,-18.5000002E-3,590.000033379E-3,
,,,-18.4800010E-3,-3.03999986E-3,,,,,-18.4800010E-3,590.000033379E-3,
,,,-18.4599999E-3,-2.3999999E-3,,,,,-18.4599999E-3,590.000033379E-3,
,,,-18.4400007E-3,-3.03999986E-3,,,,,-18.4400007E-3,587.999999523E-3,
,,,-18.4199996E-3,-2.4800000E-3,,,,,-18.4199996E-3,590.000033379E-3,
,,,-18.4000004E-3,-2.3200000E-3,,,,,-18.4000004E-3,587.999999523E-3,
,,,-18.3800012E-3,-2.4800000E-3,,,,,-18.3800012E-3,587.999999523E-3,
,,,-18.3600001E-3,-2.6399998E-3,,,,,-18.3600001E-3,587.999999523E-3,
,,,-18.3400009E-3,-3.03999986E-3,,,,,-18.3400009E-3,586.000025272E-3,
