03_lab/data/optical-cavity-day3/backup/fwhm_L23cm_mar26_444.csv

Record Length,2500,Points,829.999975394E-6,-3.99999972E-3,,Record Length,2500,Points,829.999975394E-6,919.999957085E-3,
Sample Interval,39.99999976E-9,s,830.039964058E-6,-3.00000003E-3,,Sample Interval,39.99999976E-9,s,830.039964058E-6,919.999957085E-3,
Trigger Point,-20.75000050E3,Samples,830.079952721E-6,-3.39999981E-3,,Trigger Point,-20.75000050E3,Samples,830.079952721E-6,939.999997616E-3,
,,,830.119999591E-6,-3.79999983E-3,,,,,830.119999591E-6,899.999976158E-3,
,,,830.159988254E-6,-3.00000003E-3,,,,,830.159988254E-6,919.999957085E-3,
,,,830.199976917E-6,-3.79999983E-3,,,,,830.199976917E-6,919.999957085E-3,
Source,CH1,,830.239965580E-6,-3.19999992E-3,,Source,CH2,,830.239965580E-6,919.999957085E-3,
Vertical Units,Volts,,830.279954243E-6,-3.79999983E-3,,Vertical Units,Volts,,830.279954243E-6,939.999997616E-3,
Vertical Scale,4.99999987E-3,,830.320001114E-6,-4.19999985E-3,,Vertical Scale,499.999988824E-3,,830.320001114E-6,939.999997616E-3,
Vertical Offset,0,,830.359989777E-6,-3.99999972E-3,,Vertical Offset,0,,830.359989777E-6,899.999976158E-3,
Horizontal Units,s,,830.399978440E-6,-3.99999972E-3,,Horizontal Units,s,,830.399978440E-6,919.999957085E-3,
Horizontal Scale,9.999999939E-6,,830.439967103E-6,-3.39999981E-3,,Horizontal Scale,9.999999939E-6,,830.439967103E-6,939.999997616E-3,
Pt Fmt,Y,,830.479955766E-6,-3.79999983E-3,,Pt Fmt,Y,,830.479955766E-6,919.999957085E-3,
Yzero,-1.4000000,,830.520002637E-6,-3.59999994E-3,,Yzero,-2.88000000,,830.520002637E-6,919.999957085E-3,
Probe Atten,1.000000,,830.559991300E-6,-3.79999983E-3,,Probe Atten,1.000000,,830.559991300E-6,919.999957085E-3,
,,,830.599979963E-6,-3.79999983E-3,,,,,830.599979963E-6,939.999997616E-3,
Note,TDS 1002B - 4:44:08 PM   3/26/2018,,830.639968626E-6,-3.39999981E-3,,Note,TDS 1002B - 4:44:08 PM   3/26/2018,,830.639968626E-6,939.999997616E-3,
,,,830.679957289E-6,-3.59999994E-3,,,,,830.679957289E-6,919.999957085E-3,
,,,830.720004160E-6,-3.00000003E-3,,,,,830.720004160E-6,939.999997616E-3,
,,,830.759992823E-6,-3.00000003E-3,,,,,830.759992823E-6,919.999957085E-3,
,,,830.799981486E-6,-3.39999981E-3,,,,,830.799981486E-6,919.999957085E-3,
,,,830.839970149E-6,-3.39999981E-3,,,,,830.839970149E-6,919.999957085E-3,
,,,830.879958812E-6,-3.59999994E-3,,,,,830.879958812E-6,899.999976158E-3,
,,,830.919947475E-6,-3.79999983E-3,,,,,830.919947475E-6,939.999997616E-3,
,,,830.959994346E-6,-3.79999983E-3,,,,,830.959994346E-6,919.999957085E-3,
,,,830.999983009E-6,-3.99999972E-3,,,,,830.999983009E-6,899.999976158E-3,
,,,831.039971672E-6,-3.99999972E-3,,,,,831.039971672E-6,939.999997616E-3,
,,,831.079960335E-6,-3.79999983E-3,,,,,831.079960335E-6,939.999997616E-3,
,,,831.119948998E-6,-3.79999983E-3,,,,,831.119948998E-6,919.999957085E-3,
,,,831.159995869E-6,-3.79999983E-3,,,,,831.159995869E-6,919.999957085E-3,
,,,831.199984532E-6,-3.39999981E-3,,,,,831.199984532E-6,919.999957085E-3,
,,,831.239973195E-6,-3.79999983E-3,,,,,831.239973195E-6,919.999957085E-3,
,,,831.279961858E-6,-3.99999972E-3,,,,,831.279961858E-6,939.999997616E-3,
,,,831.319950521E-6,-3.39999981E-3,,,,,831.319950521E-6,899.999976158E-3,
,,,831.359997392E-6,-3.19999992E-3,,,,,831.359997392E-6,919.999957085E-3,
,,,831.399986055E-6,-3.79999983E-3,,,,,831.399986055E-6,919.999957085E-3,
,,,831.439974718E-6,-3.99999972E-3,,,,,831.439974718E-6,939.999997616E-3,
,,,831.479963381E-6,-3.59999994E-3,,,,,831.479963381E-6,919.999957085E-3,
,,,831.519952044E-6,-3.79999983E-3,,,,,831.519952044E-6,939.999997616E-3,
,,,831.559998915E-6,-3.99999972E-3,,,,,831.559998915E-6,919.999957085E-3,
,,,831.599987578E-6,-3.99999972E-3,,,,,831.599987578E-6,919.999957085E-3,
,,,831.639976241E-6,-3.79999983E-3,,,,,831.639976241E-6,919.999957085E-3,
,,,831.679964904E-6,-3.79999983E-3,,,,,831.679964904E-6,919.999957085E-3,
,,,831.719953567E-6,-3.79999983E-3,,,,,831.719953567E-6,919.999957085E-3,
,,,831.760000437E-6,-3.99999972E-3,,,,,831.760000437E-6,919.999957085E-3,
,,,831.799989101E-6,-3.79999983E-3,,,,,831.799989101E-6,899.999976158E-3,
,,,831.839977764E-6,-3.79999983E-3,,,,,831.839977764E-6,899.999976158E-3,
,,,831.879966427E-6,-3.99999972E-3,,,,,831.879966427E-6,919.999957085E-3,
,,,831.919955090E-6,-4.60000010E-3,,,,,831.919955090E-6,919.999957085E-3,
,,,831.960001960E-6,-3.79999983E-3,,,,,831.960001960E-6,939.999997616E-3,
,,,831.999990623E-6,-4.19999985E-3,,,,,831.999990623E-6,879.999995232E-3,
,,,832.039979286E-6,-4.39999998E-3,,,,,832.039979286E-6,919.999957085E-3,
,,,832.079967950E-6,-3.99999972E-3,,,,,832.079967950E-6,919.999957085E-3,
,,,832.119956613E-6,-4.19999985E-3,,,,,832.119956613E-6,899.999976158E-3,
,,,832.160003483E-6,-3.79999983E-3,,,,,832.160003483E-6,899.999976158E-3,
,,,832.199992146E-6,-3.59999994E-3,,,,,832.199992146E-6,919.999957085E-3,
,,,832.239980809E-6,-3.99999972E-3,,,,,832.239980809E-6,939.999997616E-3,
,,,832.279969472E-6,-3.39999981E-3,,,,,832.279969472E-6,899.999976158E-3,
,,,832.319958135E-6,-4.60000010E-3,,,,,832.319958135E-6,919.999957085E-3,
,,,832.359946799E-6,-4.19999985E-3,,,,,832.359946799E-6,919.999957085E-3,
,,,832.399993669E-6,-3.79999983E-3,,,,,832.399993669E-6,919.999957085E-3,
,,,832.439982332E-6,-3.79999983E-3,,,,,832.439982332E-6,919.999957085E-3,
,,,832.479970995E-6,-3.39999981E-3,,,,,832.479970995E-6,939.999997616E-3,
,,,832.519959658E-6,-3.59999994E-3,,,,,832.519959658E-6,919.999957085E-3,
,,,832.559948321E-6,-4.19999985E-3,,,,,832.559948321E-6,919.999957085E-3,
,,,832.599995192E-6,-3.79999983E-3,,,,,832.599995192E-6,919.999957085E-3,
,,,832.639983855E-6,-4.39999998E-3,,,,,832.639983855E-6,939.999997616E-3,
,,,832.679972518E-6,-3.59999994E-3,,,,,832.679972518E-6,919.999957085E-3,
,,,832.719961181E-6,-3.79999983E-3,,,,,832.719961181E-6,959.999978542E-3,
,,,832.759949844E-6,-4.19999985E-3,,,,,832.759949844E-6,879.999995232E-3,
,,,832.799996715E-6,-3.99999972E-3,,,,,832.799996715E-6,939.999997616E-3,
,,,832.839985378E-6,-3.99999972E-3,,,,,832.839985378E-6,919.999957085E-3,
,,,832.879974041E-6,-4.19999985E-3,,,,,832.879974041E-6,919.999957085E-3,
,,,832.919962704E-6,-3.39999981E-3,,,,,832.919962704E-6,899.999976158E-3,
,,,832.959951367E-6,-3.39999981E-3,,,,,832.959951367E-6,919.999957085E-3,
,,,832.999998238E-6,-3.79999983E-3,,,,,832.999998238E-6,939.999997616E-3,
,,,833.039986901E-6,-4.39999998E-3,,,,,833.039986901E-6,899.999976158E-3,
,,,833.079975564E-6,-4.19999985E-3,,,,,833.079975564E-6,939.999997616E-3,
,,,833.119964227E-6,-4.39999998E-3,,,,,833.119964227E-6,919.999957085E-3,
,,,833.159952890E-6,-3.99999972E-3,,,,,833.159952890E-6,919.999957085E-3,
,,,833.199999761E-6,-3.79999983E-3,,,,,833.199999761E-6,919.999957085E-3,
,,,833.239988424E-6,-4.39999998E-3,,,,,833.239988424E-6,919.999957085E-3,
,,,833.279977087E-6,-3.99999972E-3,,,,,833.279977087E-6,919.999957085E-3,
,,,833.319965750E-6,-3.59999994E-3,,,,,833.319965750E-6,919.999957085E-3,
,,,833.359954413E-6,-3.99999972E-3,,,,,833.359954413E-6,919.999957085E-3,
,,,833.400001284E-6,-3.79999983E-3,,,,,833.400001284E-6,919.999957085E-3,
,,,833.439989947E-6,-4.39999998E-3,,,,,833.439989947E-6,919.999957085E-3,
,,,833.479978610E-6,-4.39999998E-3,,,,,833.479978610E-6,919.999957085E-3,
,,,833.519967273E-6,-3.99999972E-3,,,,,833.519967273E-6,919.999957085E-3,
,,,833.559955936E-6,-4.19999985E-3,,,,,833.559955936E-6,919.999957085E-3,
,,,833.600002807E-6,-3.59999994E-3,,,,,833.600002807E-6,939.999997616E-3,
,,,833.639991470E-6,-3.79999983E-3,,,,,833.639991470E-6,939.999997616E-3,
,,,833.679980133E-6,-3.99999972E-3,,,,,833.679980133E-6,919.999957085E-3,
,,,833.719968796E-6,-3.79999983E-3,,,,,833.719968796E-6,919.999957085E-3,
,,,833.759957459E-6,-4.19999985E-3,,,,,833.759957459E-6,899.999976158E-3,
,,,833.800004330E-6,-3.19999992E-3,,,,,833.800004330E-6,919.999957085E-3,
,,,833.839992993E-6,-3.19999992E-3,,,,,833.839992993E-6,919.999957085E-3,
,,,833.879981656E-6,-3.59999994E-3,,,,,833.879981656E-6,939.999997616E-3,
,,,833.919970319E-6,-3.79999983E-3,,,,,833.919970319E-6,899.999976158E-3,
,,,833.959958982E-6,-3.39999981E-3,,,,,833.959958982E-6,919.999957085E-3,
,,,833.999947645E-6,-2.79999990E-3,,,,,833.999947645E-6,899.999976158E-3,
,,,834.039994515E-6,-3.59999994E-3,,,,,834.039994515E-6,939.999997616E-3,
,,,834.079983179E-6,-3.99999972E-3,,,,,834.079983179E-6,879.999995232E-3,
,,,834.119971842E-6,-3.59999994E-3,,,,,834.119971842E-6,919.999957085E-3,
,,,834.159960505E-6,-3.59999994E-3,,,,,834.159960505E-6,939.999997616E-3,
,,,834.199949168E-6,-3.99999972E-3,,,,,834.199949168E-6,919.999957085E-3,
,,,834.239996038E-6,-3.59999994E-3,,,,,834.239996038E-6,919.999957085E-3,
,,,834.279984701E-6,-3.99999972E-3,,,,,834.279984701E-6,899.999976158E-3,
,,,834.319973364E-6,-3.39999981E-3,,,,,834.319973364E-6,959.999978542E-3,
,,,834.359962028E-6,-3.79999983E-3,,,,,834.359962028E-6,939.999997616E-3,
,,,834.399950691E-6,-3.99999972E-3,,,,,834.399950691E-6,899.999976158E-3,
,,,834.439997561E-6,-3.39999981E-3,,,,,834.439997561E-6,919.999957085E-3,
,,,834.479986224E-6,-3.39999981E-3,,,,,834.479986224E-6,919.999957085E-3,
,,,834.519974887E-6,-3.99999972E-3,,,,,834.519974887E-6,919.999957085E-3,
,,,834.559963550E-6,-3.39999981E-3,,,,,834.559963550E-6,939.999997616E-3,
,,,834.599952213E-6,-3.39999981E-3,,,,,834.599952213E-6,939.999997616E-3,
,,,834.639999084E-6,-2.79999990E-3,,,,,834.639999084E-6,899.999976158E-3,
,,,834.679987747E-6,-3.79999983E-3,,,,,834.679987747E-6,919.999957085E-3,
,,,834.719976410E-6,-3.99999972E-3,,,,,834.719976410E-6,919.999957085E-3,
,,,834.759965073E-6,-3.59999994E-3,,,,,834.759965073E-6,919.999957085E-3,
,,,834.799953736E-6,-3.39999981E-3,,,,,834.799953736E-6,939.999997616E-3,
,,,834.840000607E-6,-3.19999992E-3,,,,,834.840000607E-6,919.999957085E-3,
,,,834.879989270E-6,-3.39999981E-3,,,,,834.879989270E-6,939.999997616E-3,
,,,834.919977933E-6,-4.19999985E-3,,,,,834.919977933E-6,939.999997616E-3,
,,,834.959966596E-6,-3.59999994E-3,,,,,834.959966596E-6,899.999976158E-3,
,,,834.999955259E-6,-3.59999994E-3,,,,,834.999955259E-6,899.999976158E-3,
,,,835.040002130E-6,-3.19999992E-3,,,,,835.040002130E-6,919.999957085E-3,
,,,835.079990793E-6,-3.59999994E-3,,,,,835.079990793E-6,899.999976158E-3,
,,,835.119979456E-6,-3.99999972E-3,,,,,835.119979456E-6,919.999957085E-3,
,,,835.159968119E-6,-3.99999972E-3,,,,,835.159968119E-6,919.999957085E-3,
,,,835.199956782E-6,-3.99999972E-3,,,,,835.199956782E-6,919.999957085E-3,
,,,835.240003653E-6,-3.39999981E-3,,,,,835.240003653E-6,919.999957085E-3,
,,,835.279992316E-6,-3.79999983E-3,,,,,835.279992316E-6,939.999997616E-3,
,,,835.319980979E-6,-3.59999994E-3,,,,,835.319980979E-6,919.999957085E-3,
,,,835.359969642E-6,-3.59999994E-3,,,,,835.359969642E-6,919.999957085E-3,
,,,835.399958305E-6,-3.39999981E-3,,,,,835.399958305E-6,939.999997616E-3,
,,,835.439946968E-6,-3.79999983E-3,,,,,835.439946968E-6,899.999976158E-3,
,,,835.479993839E-6,-3.99999972E-3,,,,,835.479993839E-6,919.999957085E-3,
,,,835.519982502E-6,-3.59999994E-3,,,,,835.519982502E-6,919.999957085E-3,
,,,835.559971165E-6,-3.19999992E-3,,,,,835.559971165E-6,919.999957085E-3,
,,,835.599959828E-6,-3.00000003E-3,,,,,835.599959828E-6,919.999957085E-3,
,,,835.639948491E-6,-4.19999985E-3,,,,,835.639948491E-6,919.999957085E-3,
,,,835.679995362E-6,-3.39999981E-3,,,,,835.679995362E-6,959.999978542E-3,
,,,835.719984025E-6,-3.39999981E-3,,,,,835.719984025E-6,939.999997616E-3,
,,,835.759972688E-6,-3.79999983E-3,,,,,835.759972688E-6,919.999957085E-3,
,,,835.799961351E-6,-3.59999994E-3,,,,,835.799961351E-6,899.999976158E-3,
,,,835.839950014E-6,-3.19999992E-3,,,,,835.839950014E-6,899.999976158E-3,
,,,835.879996885E-6,-3.59999994E-3,,,,,835.879996885E-6,899.999976158E-3,
,,,835.919985548E-6,-3.59999994E-3,,,,,835.919985548E-6,919.999957085E-3,
,,,835.959974211E-6,-3.59999994E-3,,,,,835.959974211E-6,899.999976158E-3,
,,,835.999962874E-6,-3.99999972E-3,,,,,835.999962874E-6,919.999957085E-3,
,,,836.039951537E-6,-3.99999972E-3,,,,,836.039951537E-6,939.999997616E-3,
,,,836.079998408E-6,-3.59999994E-3,,,,,836.079998408E-6,939.999997616E-3,
,,,836.119987071E-6,-4.19999985E-3,,,,,836.119987071E-6,939.999997616E-3,
,,,836.159975734E-6,-3.99999972E-3,,,,,836.159975734E-6,939.999997616E-3,
,,,836.199964397E-6,-3.59999994E-3,,,,,836.199964397E-6,939.999997616E-3,
,,,836.239953060E-6,-3.39999981E-3,,,,,836.239953060E-6,919.999957085E-3,
,,,836.279999930E-6,-3.39999981E-3,,,,,836.279999930E-6,919.999957085E-3,
,,,836.319988593E-6,-3.99999972E-3,,,,,836.319988593E-6,919.999957085E-3,
,,,836.359977257E-6,-3.59999994E-3,,,,,836.359977257E-6,919.999957085E-3,
,,,836.399965920E-6,-3.19999992E-3,,,,,836.399965920E-6,959.999978542E-3,
,,,836.439954583E-6,-2.79999990E-3,,,,,836.439954583E-6,959.999978542E-3,
,,,836.480001453E-6,-3.59999994E-3,,,,,836.480001453E-6,939.999997616E-3,
,,,836.519990116E-6,-3.59999994E-3,,,,,836.519990116E-6,919.999957085E-3,
,,,836.559978779E-6,-3.79999983E-3,,,,,836.559978779E-6,919.999957085E-3,
,,,836.599967442E-6,-3.59999994E-3,,,,,836.599967442E-6,939.999997616E-3,
,,,836.639956106E-6,-2.79999990E-3,,,,,836.639956106E-6,919.999957085E-3,
,,,836.680002976E-6,-3.39999981E-3,,,,,836.680002976E-6,919.999957085E-3,
,,,836.719991639E-6,-3.99999972E-3,,,,,836.719991639E-6,919.999957085E-3,
,,,836.759980302E-6,-3.19999992E-3,,,,,836.759980302E-6,919.999957085E-3,
,,,836.799968965E-6,-3.39999981E-3,,,,,836.799968965E-6,939.999997616E-3,
,,,836.839957628E-6,-3.59999994E-3,,,,,836.839957628E-6,939.999997616E-3,
,,,836.879946291E-6,-3.19999992E-3,,,,,836.879946291E-6,919.999957085E-3,
,,,836.919993162E-6,-3.39999981E-3,,,,,836.919993162E-6,919.999957085E-3,
,,,836.959981825E-6,-3.59999994E-3,,,,,836.959981825E-6,919.999957085E-3,
,,,836.999970488E-6,-3.39999981E-3,,,,,836.999970488E-6,919.999957085E-3,
,,,837.039959151E-6,-3.39999981E-3,,,,,837.039959151E-6,939.999997616E-3,
,,,837.079947814E-6,-2.79999990E-3,,,,,837.079947814E-6,939.999997616E-3,
,,,837.119994685E-6,-2.6000000E-3,,,,,837.119994685E-6,919.999957085E-3,
,,,837.159983348E-6,-2.79999990E-3,,,,,837.159983348E-6,939.999997616E-3,
,,,837.199972011E-6,-3.59999994E-3,,,,,837.199972011E-6,919.999957085E-3,
,,,837.239960674E-6,-2.79999990E-3,,,,,837.239960674E-6,939.999997616E-3,
,,,837.279949337E-6,-3.79999983E-3,,,,,837.279949337E-6,919.999957085E-3,
,,,837.319996208E-6,-2.79999990E-3,,,,,837.319996208E-6,939.999997616E-3,
,,,837.359984871E-6,-3.19999992E-3,,,,,837.359984871E-6,919.999957085E-3,
,,,837.399973534E-6,-3.19999992E-3,,,,,837.399973534E-6,919.999957085E-3,
,,,837.439962197E-6,-3.59999994E-3,,,,,837.439962197E-6,939.999997616E-3,
,,,837.479950860E-6,-3.39999981E-3,,,,,837.479950860E-6,919.999957085E-3,
,,,837.519997731E-6,-3.39999981E-3,,,,,837.519997731E-6,919.999957085E-3,
,,,837.559986394E-6,-2.79999990E-3,,,,,837.559986394E-6,899.999976158E-3,
,,,837.599975057E-6,-3.39999981E-3,,,,,837.599975057E-6,939.999997616E-3,
,,,837.639963720E-6,-3.39999981E-3,,,,,837.639963720E-6,939.999997616E-3,
,,,837.679952383E-6,-3.39999981E-3,,,,,837.679952383E-6,939.999997616E-3,
,,,837.719999254E-6,-3.59999994E-3,,,,,837.719999254E-6,919.999957085E-3,
,,,837.759987917E-6,-3.39999981E-3,,,,,837.759987917E-6,939.999997616E-3,
,,,837.799976580E-6,-2.79999990E-3,,,,,837.799976580E-6,919.999957085E-3,
,,,837.839965243E-6,-3.00000003E-3,,,,,837.839965243E-6,919.999957085E-3,
,,,837.879953906E-6,-4.19999985E-3,,,,,837.879953906E-6,919.999957085E-3,
,,,837.920000777E-6,-3.19999992E-3,,,,,837.920000777E-6,939.999997616E-3,
,,,837.959989440E-6,-3.19999992E-3,,,,,837.959989440E-6,919.999957085E-3,
,,,837.999978103E-6,-3.59999994E-3,,,,,837.999978103E-6,919.999957085E-3,
,,,838.039966766E-6,-4.39999998E-3,,,,,838.039966766E-6,899.999976158E-3,
,,,838.079955429E-6,-3.59999994E-3,,,,,838.079955429E-6,919.999957085E-3,
,,,838.120002300E-6,-3.39999981E-3,,,,,838.120002300E-6,919.999957085E-3,
,,,838.159990963E-6,-3.19999992E-3,,,,,838.159990963E-6,919.999957085E-3,
,,,838.199979626E-6,-3.59999994E-3,,,,,838.199979626E-6,919.999957085E-3,
,,,838.239968289E-6,-3.39999981E-3,,,,,838.239968289E-6,919.999957085E-3,
,,,838.279956952E-6,-3.00000003E-3,,,,,838.279956952E-6,919.999957085E-3,
,,,838.320003822E-6,-3.39999981E-3,,,,,838.320003822E-6,919.999957085E-3,
,,,838.359992485E-6,-3.59999994E-3,,,,,838.359992485E-6,899.999976158E-3,
,,,838.399981149E-6,-2.79999990E-3,,,,,838.399981149E-6,919.999957085E-3,
,,,838.439969812E-6,-3.39999981E-3,,,,,838.439969812E-6,919.999957085E-3,
,,,838.479958475E-6,-3.39999981E-3,,,,,838.479958475E-6,919.999957085E-3,
,,,838.519947138E-6,-3.99999972E-3,,,,,838.519947138E-6,919.999957085E-3,
,,,838.559994008E-6,-3.39999981E-3,,,,,838.559994008E-6,919.999957085E-3,
,,,838.599982671E-6,-3.00000003E-3,,,,,838.599982671E-6,939.999997616E-3,
,,,838.639971334E-6,-3.79999983E-3,,,,,838.639971334E-6,939.999997616E-3,
,,,838.679959998E-6,-3.39999981E-3,,,,,838.679959998E-6,919.999957085E-3,
,,,838.719948661E-6,-2.3999999E-3,,,,,838.719948661E-6,939.999997616E-3,
,,,838.759995531E-6,-3.79999983E-3,,,,,838.759995531E-6,919.999957085E-3,
,,,838.799984194E-6,-3.79999983E-3,,,,,838.799984194E-6,919.999957085E-3,
,,,838.839972857E-6,-3.00000003E-3,,,,,838.839972857E-6,919.999957085E-3,
,,,838.879961520E-6,-3.39999981E-3,,,,,838.879961520E-6,919.999957085E-3,
,,,838.919950183E-6,-4.19999985E-3,,,,,838.919950183E-6,919.999957085E-3,
,,,838.959997054E-6,-3.39999981E-3,,,,,838.959997054E-6,919.999957085E-3,
,,,838.999985717E-6,-3.79999983E-3,,,,,838.999985717E-6,919.999957085E-3,
,,,839.039974380E-6,-3.19999992E-3,,,,,839.039974380E-6,939.999997616E-3,
,,,839.079963043E-6,-3.79999983E-3,,,,,839.079963043E-6,899.999976158E-3,
,,,839.119951706E-6,-3.59999994E-3,,,,,839.119951706E-6,919.999957085E-3,
,,,839.159998577E-6,-3.39999981E-3,,,,,839.159998577E-6,919.999957085E-3,
,,,839.199987240E-6,-3.39999981E-3,,,,,839.199987240E-6,899.999976158E-3,
,,,839.239975903E-6,-3.00000003E-3,,,,,839.239975903E-6,899.999976158E-3,
,,,839.279964566E-6,-3.19999992E-3,,,,,839.279964566E-6,939.999997616E-3,
,,,839.319953229E-6,-3.39999981E-3,,,,,839.319953229E-6,939.999997616E-3,
,,,839.360000100E-6,-4.19999985E-3,,,,,839.360000100E-6,919.999957085E-3,
,,,839.399988763E-6,-2.79999990E-3,,,,,839.399988763E-6,939.999997616E-3,
,,,839.439977426E-6,-3.19999992E-3,,,,,839.439977426E-6,919.999957085E-3,
,,,839.479966089E-6,-3.00000003E-3,,,,,839.479966089E-6,939.999997616E-3,
,,,839.519954752E-6,-3.00000003E-3,,,,,839.519954752E-6,919.999957085E-3,
,,,839.560001623E-6,-3.00000003E-3,,,,,839.560001623E-6,939.999997616E-3,
,,,839.599990286E-6,-3.00000003E-3,,,,,839.599990286E-6,919.999957085E-3,
,,,839.639978949E-6,-3.39999981E-3,,,,,839.639978949E-6,939.999997616E-3,
,,,839.679967612E-6,-3.59999994E-3,,,,,839.679967612E-6,919.999957085E-3,
,,,839.719956275E-6,-3.00000003E-3,,,,,839.719956275E-6,919.999957085E-3,
,,,839.760003146E-6,-3.19999992E-3,,,,,839.760003146E-6,939.999997616E-3,
,,,839.799991809E-6,-3.19999992E-3,,,,,839.799991809E-6,939.999997616E-3,
,,,839.839980472E-6,-3.00000003E-3,,,,,839.839980472E-6,919.999957085E-3,
,,,839.879969135E-6,-2.6000000E-3,,,,,839.879969135E-6,919.999957085E-3,
,,,839.919957798E-6,-2.6000000E-3,,,,,839.919957798E-6,919.999957085E-3,
,,,839.959946461E-6,-3.59999994E-3,,,,,839.959946461E-6,939.999997616E-3,
,,,839.999993332E-6,-2.79999990E-3,,,,,839.999993332E-6,919.999957085E-3,
,,,840.039981995E-6,-3.00000003E-3,,,,,840.039981995E-6,939.999997616E-3,
,,,840.079970658E-6,-3.39999981E-3,,,,,840.079970658E-6,919.999957085E-3,
,,,840.119959321E-6,-3.00000003E-3,,,,,840.119959321E-6,899.999976158E-3,
,,,840.159947984E-6,-3.19999992E-3,,,,,840.159947984E-6,919.999957085E-3,
,,,840.199994855E-6,-3.19999992E-3,,,,,840.199994855E-6,919.999957085E-3,
,,,840.239983518E-6,-3.59999994E-3,,,,,840.239983518E-6,939.999997616E-3,
,,,840.279972181E-6,-3.79999983E-3,,,,,840.279972181E-6,919.999957085E-3,
,,,840.319960844E-6,-3.19999992E-3,,,,,840.319960844E-6,939.999997616E-3,
,,,840.359949507E-6,-3.99999972E-3,,,,,840.359949507E-6,939.999997616E-3,
,,,840.399996378E-6,-3.00000003E-3,,,,,840.399996378E-6,939.999997616E-3,
,,,840.439985041E-6,-3.39999981E-3,,,,,840.439985041E-6,919.999957085E-3,
