03_lab/data/optical-cavity-day3/backup/fwhm_data_L13cm_mar26_327.csv

Record Length,2500,Points,-864.000001457E-6,-4.63999994E-3,,Record Length,2500,Points,-864.000001457E-6,560.000002384E-3,
Sample Interval,400.00000467E-9,s,-863.599998411E-6,-5.03999973E-3,,Sample Interval,400.00000467E-9,s,-863.599998411E-6,560.000002384E-3,
Trigger Point,2.1600001E3,Samples,-863.199995365E-6,-4.72000008E-3,,Trigger Point,2.1600001E3,Samples,-863.199995365E-6,560.000002384E-3,
,,,-862.799992319E-6,-4.87999991E-3,,,,,-862.799992319E-6,560.000002384E-3,
,,,-862.399989273E-6,-4.96000005E-3,,,,,-862.399989273E-6,568.000018597E-3,
,,,-861.999986228E-6,-5.11999987E-3,,,,,-861.999986228E-6,560.000002384E-3,
Source,CH1,,-861.599983182E-6,-4.47999965E-3,,Source,CH2,,-861.599983182E-6,560.000002384E-3,
Vertical Units,Volts,,-861.199980136E-6,-4.31999983E-3,,Vertical Units,Volts,,-861.199980136E-6,560.000002384E-3,
Vertical Scale,1.9999999E-3,,-860.799977090E-6,-4.63999994E-3,,Vertical Scale,200.00000950E-3,,-860.799977090E-6,568.000018597E-3,
Vertical Offset,0,,-860.399974044E-6,-4.72000008E-3,,Vertical Offset,0,,-860.399974044E-6,568.000018597E-3,
Horizontal Units,s,,-860.000029206E-6,-4.55999980E-3,,Horizontal Units,s,,-860.000029206E-6,560.000002384E-3,
Horizontal Scale,100.0000012E-6,,-859.600026160E-6,-4.39999998E-3,,Horizontal Scale,100.0000012E-6,,-859.600026160E-6,568.000018597E-3,
Pt Fmt,Y,,-859.200023115E-6,-4.55999980E-3,,Pt Fmt,Y,,-859.200023115E-6,568.000018597E-3,
Yzero,0.0,,-858.800020069E-6,-4.79999976E-3,,Yzero,-1.8800000,,-858.800020069E-6,560.000002384E-3,
Probe Atten,1.000000,,-858.400017023E-6,-5.03999973E-3,,Probe Atten,1.000000,,-858.400017023E-6,560.000002384E-3,
,,,-858.000013977E-6,-4.63999994E-3,,,,,-858.000013977E-6,560.000002384E-3,
Note,TDS 1002B - 3:27:34 PM   3/26/2018,,-857.600010931E-6,-5.11999987E-3,,Note,TDS 1002B - 3:27:34 PM   3/26/2018,,-857.600010931E-6,560.000002384E-3,
,,,-857.200007886E-6,-4.55999980E-3,,,,,-857.200007886E-6,560.000002384E-3,
,,,-856.800004840E-6,-4.47999965E-3,,,,,-856.800004840E-6,568.000018597E-3,
,,,-856.400001794E-6,-4.55999980E-3,,,,,-856.400001794E-6,560.000002384E-3,
,,,-855.999998748E-6,-4.63999994E-3,,,,,-855.999998748E-6,560.000002384E-3,
,,,-855.599995703E-6,-4.55999980E-3,,,,,-855.599995703E-6,568.000018597E-3,
,,,-855.199992657E-6,-4.96000005E-3,,,,,-855.199992657E-6,568.000018597E-3,
,,,-854.799989611E-6,-4.39999998E-3,,,,,-854.799989611E-6,560.000002384E-3,
,,,-854.399986565E-6,-4.47999965E-3,,,,,-854.399986565E-6,568.000018597E-3,
,,,-853.999983519E-6,-4.39999998E-3,,,,,-853.999983519E-6,568.000018597E-3,
,,,-853.599980474E-6,-4.63999994E-3,,,,,-853.599980474E-6,568.000018597E-3,
,,,-853.199977428E-6,-5.11999987E-3,,,,,-853.199977428E-6,568.000018597E-3,
,,,-852.799974382E-6,-4.55999980E-3,,,,,-852.799974382E-6,568.000018597E-3,
,,,-852.400029544E-6,-4.63999994E-3,,,,,-852.400029544E-6,568.000018597E-3,
,,,-852.000026498E-6,-4.47999965E-3,,,,,-852.000026498E-6,568.000018597E-3,
,,,-851.600023452E-6,-5.03999973E-3,,,,,-851.600023452E-6,560.000002384E-3,
,,,-851.200020406E-6,-4.79999976E-3,,,,,-851.200020406E-6,560.000002384E-3,
,,,-850.800017361E-6,-4.23999969E-3,,,,,-850.800017361E-6,568.000018597E-3,
,,,-850.400014315E-6,-5.27999969E-3,,,,,-850.400014315E-6,568.000018597E-3,
,,,-850.000011269E-6,-5.20000001E-3,,,,,-850.000011269E-6,560.000002384E-3,
,,,-849.600008223E-6,-4.55999980E-3,,,,,-849.600008223E-6,560.000002384E-3,
,,,-849.200005177E-6,-4.87999991E-3,,,,,-849.200005177E-6,560.000002384E-3,
,,,-848.800002132E-6,-4.96000005E-3,,,,,-848.800002132E-6,568.000018597E-3,
,,,-848.399999086E-6,-4.55999980E-3,,,,,-848.399999086E-6,568.000018597E-3,
,,,-847.999996040E-6,-4.39999998E-3,,,,,-847.999996040E-6,560.000002384E-3,
,,,-847.599992994E-6,-4.39999998E-3,,,,,-847.599992994E-6,568.000018597E-3,
,,,-847.199989948E-6,-4.55999980E-3,,,,,-847.199989948E-6,576.000034809E-3,
,,,-846.799986903E-6,-4.72000008E-3,,,,,-846.799986903E-6,568.000018597E-3,
,,,-846.399983857E-6,-4.72000008E-3,,,,,-846.399983857E-6,568.000018597E-3,
,,,-845.999980811E-6,-5.03999973E-3,,,,,-845.999980811E-6,568.000018597E-3,
,,,-845.599977765E-6,-4.63999994E-3,,,,,-845.599977765E-6,568.000018597E-3,
,,,-845.199974719E-6,-5.11999987E-3,,,,,-845.199974719E-6,576.000034809E-3,
,,,-844.800029881E-6,-5.35999984E-3,,,,,-844.800029881E-6,576.000034809E-3,
,,,-844.400026836E-6,-4.55999980E-3,,,,,-844.400026836E-6,568.000018597E-3,
,,,-844.000023790E-6,-4.55999980E-3,,,,,-844.000023790E-6,576.000034809E-3,
,,,-843.600020744E-6,-4.63999994E-3,,,,,-843.600020744E-6,568.000018597E-3,
,,,-843.200017698E-6,-4.55999980E-3,,,,,-843.200017698E-6,568.000018597E-3,
,,,-842.800014652E-6,-4.63999994E-3,,,,,-842.800014652E-6,568.000018597E-3,
,,,-842.400011607E-6,-4.87999991E-3,,,,,-842.400011607E-6,568.000018597E-3,
,,,-842.000008561E-6,-4.87999991E-3,,,,,-842.000008561E-6,568.000018597E-3,
,,,-841.600005515E-6,-4.39999998E-3,,,,,-841.600005515E-6,568.000018597E-3,
,,,-841.200002469E-6,-4.39999998E-3,,,,,-841.200002469E-6,560.000002384E-3,
,,,-840.799999423E-6,-4.39999998E-3,,,,,-840.799999423E-6,568.000018597E-3,
,,,-840.399996378E-6,-4.23999969E-3,,,,,-840.399996378E-6,576.000034809E-3,
,,,-839.999993332E-6,-4.63999994E-3,,,,,-839.999993332E-6,568.000018597E-3,
,,,-839.599990286E-6,-5.11999987E-3,,,,,-839.599990286E-6,568.000018597E-3,
,,,-839.199987240E-6,-4.47999965E-3,,,,,-839.199987240E-6,568.000018597E-3,
,,,-838.799984194E-6,-4.16000001E-3,,,,,-838.799984194E-6,568.000018597E-3,
,,,-838.399981149E-6,-4.55999980E-3,,,,,-838.399981149E-6,576.000034809E-3,
,,,-837.999978103E-6,-4.87999991E-3,,,,,-837.999978103E-6,552.000045776E-3,
,,,-837.599975057E-6,-4.79999976E-3,,,,,-837.599975057E-6,576.000034809E-3,
,,,-837.200030219E-6,-4.87999991E-3,,,,,-837.200030219E-6,576.000034809E-3,
,,,-836.800027173E-6,-4.31999983E-3,,,,,-836.800027173E-6,568.000018597E-3,
,,,-836.400024127E-6,-4.96000005E-3,,,,,-836.400024127E-6,576.000034809E-3,
,,,-836.000021081E-6,-4.31999983E-3,,,,,-836.000021081E-6,568.000018597E-3,
,,,-835.600018036E-6,-4.31999983E-3,,,,,-835.600018036E-6,560.000002384E-3,
,,,-835.200014990E-6,-4.47999965E-3,,,,,-835.200014990E-6,568.000018597E-3,
,,,-834.800011944E-6,-4.16000001E-3,,,,,-834.800011944E-6,576.000034809E-3,
,,,-834.400008898E-6,-4.63999994E-3,,,,,-834.400008898E-6,568.000018597E-3,
,,,-834.000005852E-6,-4.47999965E-3,,,,,-834.000005852E-6,576.000034809E-3,
,,,-833.600002807E-6,-5.20000001E-3,,,,,-833.600002807E-6,568.000018597E-3,
,,,-833.199999761E-6,-4.87999991E-3,,,,,-833.199999761E-6,568.000018597E-3,
,,,-832.799996715E-6,-4.79999976E-3,,,,,-832.799996715E-6,568.000018597E-3,
,,,-832.399993669E-6,-4.96000005E-3,,,,,-832.399993669E-6,568.000018597E-3,
,,,-831.999990623E-6,-4.39999998E-3,,,,,-831.999990623E-6,568.000018597E-3,
,,,-831.599987578E-6,-4.23999969E-3,,,,,-831.599987578E-6,568.000018597E-3,
,,,-831.199984532E-6,-4.31999983E-3,,,,,-831.199984532E-6,568.000018597E-3,
,,,-830.799981486E-6,-4.87999991E-3,,,,,-830.799981486E-6,568.000018597E-3,
,,,-830.399978440E-6,-4.72000008E-3,,,,,-830.399978440E-6,568.000018597E-3,
,,,-829.999975394E-6,-4.55999980E-3,,,,,-829.999975394E-6,576.000034809E-3,
,,,-829.599972349E-6,-4.96000005E-3,,,,,-829.599972349E-6,568.000018597E-3,
,,,-829.200027511E-6,-4.79999976E-3,,,,,-829.200027511E-6,576.000034809E-3,
,,,-828.800024465E-6,-4.39999998E-3,,,,,-828.800024465E-6,568.000018597E-3,
,,,-828.400021419E-6,-4.96000005E-3,,,,,-828.400021419E-6,576.000034809E-3,
,,,-828.000018373E-6,-5.43999998E-3,,,,,-828.000018373E-6,568.000018597E-3,
,,,-827.600015327E-6,-4.87999991E-3,,,,,-827.600015327E-6,576.000034809E-3,
,,,-827.200012282E-6,-5.20000001E-3,,,,,-827.200012282E-6,568.000018597E-3,
,,,-826.800009236E-6,-4.39999998E-3,,,,,-826.800009236E-6,576.000034809E-3,
,,,-826.400006190E-6,-4.55999980E-3,,,,,-826.400006190E-6,568.000018597E-3,
,,,-826.000003144E-6,-4.72000008E-3,,,,,-826.000003144E-6,576.000034809E-3,
,,,-825.600000098E-6,-4.79999976E-3,,,,,-825.600000098E-6,576.000034809E-3,
,,,-825.199997053E-6,-4.72000008E-3,,,,,-825.199997053E-6,584.000051022E-3,
,,,-824.799994007E-6,-4.72000008E-3,,,,,-824.799994007E-6,576.000034809E-3,
,,,-824.399990961E-6,-4.72000008E-3,,,,,-824.399990961E-6,576.000034809E-3,
,,,-823.999987915E-6,-4.39999998E-3,,,,,-823.999987915E-6,576.000034809E-3,
,,,-823.599984869E-6,-4.96000005E-3,,,,,-823.599984869E-6,568.000018597E-3,
,,,-823.199981824E-6,-4.87999991E-3,,,,,-823.199981824E-6,568.000018597E-3,
,,,-822.799978778E-6,-4.47999965E-3,,,,,-822.799978778E-6,568.000018597E-3,
,,,-822.399975732E-6,-4.16000001E-3,,,,,-822.399975732E-6,576.000034809E-3,
,,,-821.999972686E-6,-4.16000001E-3,,,,,-821.999972686E-6,568.000018597E-3,
,,,-821.600027848E-6,-4.79999976E-3,,,,,-821.600027848E-6,568.000018597E-3,
,,,-821.200024802E-6,-4.96000005E-3,,,,,-821.200024802E-6,568.000018597E-3,
,,,-820.800021756E-6,-5.03999973E-3,,,,,-820.800021756E-6,568.000018597E-3,
,,,-820.400018711E-6,-4.39999998E-3,,,,,-820.400018711E-6,560.000002384E-3,
,,,-820.000015665E-6,-4.63999994E-3,,,,,-820.000015665E-6,568.000018597E-3,
,,,-819.600012619E-6,-4.31999983E-3,,,,,-819.600012619E-6,568.000018597E-3,
,,,-819.200009573E-6,-4.31999983E-3,,,,,-819.200009573E-6,576.000034809E-3,
,,,-818.800006527E-6,-4.63999994E-3,,,,,-818.800006527E-6,568.000018597E-3,
,,,-818.400003482E-6,-4.63999994E-3,,,,,-818.400003482E-6,576.000034809E-3,
,,,-818.000000436E-6,-5.03999973E-3,,,,,-818.000000436E-6,560.000002384E-3,
,,,-817.599997390E-6,-4.79999976E-3,,,,,-817.599997390E-6,576.000034809E-3,
,,,-817.199994344E-6,-4.87999991E-3,,,,,-817.199994344E-6,568.000018597E-3,
,,,-816.799991298E-6,-4.55999980E-3,,,,,-816.799991298E-6,576.000034809E-3,
,,,-816.399988253E-6,-5.20000001E-3,,,,,-816.399988253E-6,568.000018597E-3,
,,,-815.999985207E-6,-4.72000008E-3,,,,,-815.999985207E-6,576.000034809E-3,
,,,-815.599982161E-6,-4.79999976E-3,,,,,-815.599982161E-6,568.000018597E-3,
,,,-815.199979115E-6,-3.83999990E-3,,,,,-815.199979115E-6,576.000034809E-3,
,,,-814.799976069E-6,-4.16000001E-3,,,,,-814.799976069E-6,576.000034809E-3,
,,,-814.399973024E-6,-4.31999983E-3,,,,,-814.399973024E-6,584.000051022E-3,
,,,-814.000028186E-6,-4.79999976E-3,,,,,-814.000028186E-6,568.000018597E-3,
,,,-813.600025140E-6,-4.39999998E-3,,,,,-813.600025140E-6,576.000034809E-3,
,,,-813.200022094E-6,-4.39999998E-3,,,,,-813.200022094E-6,568.000018597E-3,
,,,-812.800019048E-6,-4.31999983E-3,,,,,-812.800019048E-6,576.000034809E-3,
,,,-812.400016002E-6,-4.47999965E-3,,,,,-812.400016002E-6,568.000018597E-3,
,,,-812.000012957E-6,-5.03999973E-3,,,,,-812.000012957E-6,576.000034809E-3,
,,,-811.600009911E-6,-5.27999969E-3,,,,,-811.600009911E-6,568.000018597E-3,
,,,-811.200006865E-6,-5.11999987E-3,,,,,-811.200006865E-6,576.000034809E-3,
,,,-810.800003819E-6,-4.96000005E-3,,,,,-810.800003819E-6,568.000018597E-3,
,,,-810.400000773E-6,-4.31999983E-3,,,,,-810.400000773E-6,576.000034809E-3,
,,,-809.999997728E-6,-4.47999965E-3,,,,,-809.999997728E-6,584.000051022E-3,
,,,-809.599994682E-6,-4.47999965E-3,,,,,-809.599994682E-6,576.000034809E-3,
,,,-809.199991636E-6,-4.79999976E-3,,,,,-809.199991636E-6,576.000034809E-3,
,,,-808.799988590E-6,-4.39999998E-3,,,,,-808.799988590E-6,568.000018597E-3,
,,,-808.399985544E-6,-3.99999972E-3,,,,,-808.399985544E-6,568.000018597E-3,
,,,-807.999982499E-6,-4.55999980E-3,,,,,-807.999982499E-6,584.000051022E-3,
,,,-807.599979453E-6,-4.63999994E-3,,,,,-807.599979453E-6,576.000034809E-3,
,,,-807.199976407E-6,-4.63999994E-3,,,,,-807.199976407E-6,576.000034809E-3,
,,,-806.799973361E-6,-4.87999991E-3,,,,,-806.799973361E-6,576.000034809E-3,
,,,-806.400028523E-6,-5.43999998E-3,,,,,-806.400028523E-6,576.000034809E-3,
,,,-806.000025477E-6,-4.96000005E-3,,,,,-806.000025477E-6,568.000018597E-3,
,,,-805.600022431E-6,-4.39999998E-3,,,,,-805.600022431E-6,584.000051022E-3,
,,,-805.200019386E-6,-4.31999983E-3,,,,,-805.200019386E-6,584.000051022E-3,
,,,-804.800016340E-6,-4.39999998E-3,,,,,-804.800016340E-6,576.000034809E-3,
,,,-804.400013294E-6,-4.79999976E-3,,,,,-804.400013294E-6,576.000034809E-3,
,,,-804.000010248E-6,-4.63999994E-3,,,,,-804.000010248E-6,576.000034809E-3,
,,,-803.600007202E-6,-4.55999980E-3,,,,,-803.600007202E-6,576.000034809E-3,
,,,-803.200004157E-6,-5.03999973E-3,,,,,-803.200004157E-6,576.000034809E-3,
,,,-802.800001111E-6,-4.72000008E-3,,,,,-802.800001111E-6,576.000034809E-3,
,,,-802.399998065E-6,-4.55999980E-3,,,,,-802.399998065E-6,576.000034809E-3,
,,,-801.999995019E-6,-5.11999987E-3,,,,,-801.999995019E-6,576.000034809E-3,
,,,-801.599991973E-6,-4.55999980E-3,,,,,-801.599991973E-6,568.000018597E-3,
,,,-801.199988928E-6,-4.72000008E-3,,,,,-801.199988928E-6,576.000034809E-3,
,,,-800.799985882E-6,-4.87999991E-3,,,,,-800.799985882E-6,576.000034809E-3,
,,,-800.399982836E-6,-4.79999976E-3,,,,,-800.399982836E-6,576.000034809E-3,
,,,-799.999979790E-6,-4.87999991E-3,,,,,-799.999979790E-6,576.000034809E-3,
,,,-799.599976745E-6,-4.72000008E-3,,,,,-799.599976745E-6,576.000034809E-3,
,,,-799.199973699E-6,-4.55999980E-3,,,,,-799.199973699E-6,576.000034809E-3,
,,,-798.800028861E-6,-4.87999991E-3,,,,,-798.800028861E-6,576.000034809E-3,
,,,-798.400025815E-6,-4.79999976E-3,,,,,-798.400025815E-6,576.000034809E-3,
,,,-798.000022769E-6,-4.79999976E-3,,,,,-798.000022769E-6,576.000034809E-3,
,,,-797.600019723E-6,-4.47999965E-3,,,,,-797.600019723E-6,584.000051022E-3,
,,,-797.200016677E-6,-4.72000008E-3,,,,,-797.200016677E-6,568.000018597E-3,
,,,-796.800013632E-6,-4.55999980E-3,,,,,-796.800013632E-6,584.000051022E-3,
,,,-796.400010586E-6,-4.96000005E-3,,,,,-796.400010586E-6,576.000034809E-3,
,,,-796.000007540E-6,-5.03999973E-3,,,,,-796.000007540E-6,576.000034809E-3,
,,,-795.600004494E-6,-4.96000005E-3,,,,,-795.600004494E-6,576.000034809E-3,
,,,-795.200001448E-6,-4.55999980E-3,,,,,-795.200001448E-6,584.000051022E-3,
,,,-794.799998403E-6,-4.87999991E-3,,,,,-794.799998403E-6,584.000051022E-3,
,,,-794.399995357E-6,-4.79999976E-3,,,,,-794.399995357E-6,584.000051022E-3,
,,,-793.999992311E-6,-4.79999976E-3,,,,,-793.999992311E-6,568.000018597E-3,
,,,-793.599989265E-6,-5.20000001E-3,,,,,-793.599989265E-6,576.000034809E-3,
,,,-793.199986219E-6,-5.03999973E-3,,,,,-793.199986219E-6,576.000034809E-3,
,,,-792.799983174E-6,-5.11999987E-3,,,,,-792.799983174E-6,584.000051022E-3,
,,,-792.399980128E-6,-4.55999980E-3,,,,,-792.399980128E-6,576.000034809E-3,
,,,-791.999977082E-6,-4.79999976E-3,,,,,-791.999977082E-6,576.000034809E-3,
,,,-791.599974036E-6,-4.72000008E-3,,,,,-791.599974036E-6,584.000051022E-3,
,,,-791.200029198E-6,-4.47999965E-3,,,,,-791.200029198E-6,576.000034809E-3,
,,,-790.800026152E-6,-4.96000005E-3,,,,,-790.800026152E-6,576.000034809E-3,
,,,-790.400023106E-6,-4.39999998E-3,,,,,-790.400023106E-6,584.000051022E-3,
,,,-790.000020061E-6,-5.20000001E-3,,,,,-790.000020061E-6,576.000034809E-3,
,,,-789.600017015E-6,-4.79999976E-3,,,,,-789.600017015E-6,584.000051022E-3,
,,,-789.200013969E-6,-4.63999994E-3,,,,,-789.200013969E-6,576.000034809E-3,
,,,-788.800010923E-6,-4.87999991E-3,,,,,-788.800010923E-6,592.000007629E-3,
,,,-788.400007877E-6,-4.79999976E-3,,,,,-788.400007877E-6,576.000034809E-3,
,,,-788.000004832E-6,-4.63999994E-3,,,,,-788.000004832E-6,576.000034809E-3,
,,,-787.600001786E-6,-4.23999969E-3,,,,,-787.600001786E-6,576.000034809E-3,
,,,-787.199998740E-6,-4.72000008E-3,,,,,-787.199998740E-6,584.000051022E-3,
,,,-786.799995694E-6,-4.47999965E-3,,,,,-786.799995694E-6,584.000051022E-3,
,,,-786.399992649E-6,-4.96000005E-3,,,,,-786.399992649E-6,584.000051022E-3,
,,,-785.999989603E-6,-4.16000001E-3,,,,,-785.999989603E-6,576.000034809E-3,
,,,-785.599986557E-6,-4.55999980E-3,,,,,-785.599986557E-6,576.000034809E-3,
,,,-785.199983511E-6,-4.31999983E-3,,,,,-785.199983511E-6,584.000051022E-3,
,,,-784.799980465E-6,-4.63999994E-3,,,,,-784.799980465E-6,584.000051022E-3,
,,,-784.399977420E-6,-5.27999969E-3,,,,,-784.399977420E-6,584.000051022E-3,
,,,-783.999974374E-6,-4.96000005E-3,,,,,-783.999974374E-6,584.000051022E-3,
,,,-783.600029536E-6,-4.87999991E-3,,,,,-783.600029536E-6,584.000051022E-3,
,,,-783.200026490E-6,-5.03999973E-3,,,,,-783.200026490E-6,584.000051022E-3,
,,,-782.800023444E-6,-4.87999991E-3,,,,,-782.800023444E-6,576.000034809E-3,
,,,-782.400020398E-6,-4.87999991E-3,,,,,-782.400020398E-6,584.000051022E-3,
,,,-782.000017352E-6,-4.96000005E-3,,,,,-782.000017352E-6,576.000034809E-3,
,,,-781.600014307E-6,-4.63999994E-3,,,,,-781.600014307E-6,584.000051022E-3,
,,,-781.200011261E-6,-4.16000001E-3,,,,,-781.200011261E-6,584.000051022E-3,
,,,-780.800008215E-6,-4.23999969E-3,,,,,-780.800008215E-6,576.000034809E-3,
,,,-780.400005169E-6,-4.79999976E-3,,,,,-780.400005169E-6,584.000051022E-3,
,,,-780.000002123E-6,-4.55999980E-3,,,,,-780.000002123E-6,584.000051022E-3,
,,,-779.599999078E-6,-4.47999965E-3,,,,,-779.599999078E-6,584.000051022E-3,
,,,-779.199996032E-6,-4.07999987E-3,,,,,-779.199996032E-6,584.000051022E-3,
,,,-778.799992986E-6,-4.31999983E-3,,,,,-778.799992986E-6,576.000034809E-3,
,,,-778.399989940E-6,-4.72000008E-3,,,,,-778.399989940E-6,576.000034809E-3,
,,,-777.999986894E-6,-4.07999987E-3,,,,,-777.999986894E-6,576.000034809E-3,
,,,-777.599983849E-6,-5.03999973E-3,,,,,-777.599983849E-6,584.000051022E-3,
,,,-777.199980803E-6,-4.72000008E-3,,,,,-777.199980803E-6,584.000051022E-3,
,,,-776.799977757E-6,-4.63999994E-3,,,,,-776.799977757E-6,576.000034809E-3,
,,,-776.399974711E-6,-4.79999976E-3,,,,,-776.399974711E-6,584.000051022E-3,
,,,-775.999971665E-6,-4.47999965E-3,,,,,-775.999971665E-6,584.000051022E-3,
,,,-775.600026827E-6,-5.11999987E-3,,,,,-775.600026827E-6,576.000034809E-3,
,,,-775.200023782E-6,-5.27999969E-3,,,,,-775.200023782E-6,576.000034809E-3,
,,,-774.800020736E-6,-4.96000005E-3,,,,,-774.800020736E-6,592.000007629E-3,
,,,-774.400017690E-6,-5.03999973E-3,,,,,-774.400017690E-6,576.000034809E-3,
,,,-774.000014644E-6,-5.11999987E-3,,,,,-774.000014644E-6,584.000051022E-3,
,,,-773.600011598E-6,-4.79999976E-3,,,,,-773.600011598E-6,576.000034809E-3,
,,,-773.200008553E-6,-4.63999994E-3,,,,,-773.200008553E-6,584.000051022E-3,
,,,-772.800005507E-6,-4.87999991E-3,,,,,-772.800005507E-6,592.000007629E-3,
,,,-772.400002461E-6,-4.79999976E-3,,,,,-772.400002461E-6,584.000051022E-3,
,,,-771.999999415E-6,-4.87999991E-3,,,,,-771.999999415E-6,584.000051022E-3,
,,,-771.599996369E-6,-5.67999994E-3,,,,,-771.599996369E-6,576.000034809E-3,
,,,-771.199993324E-6,-4.79999976E-3,,,,,-771.199993324E-6,584.000051022E-3,
,,,-770.799990278E-6,-5.27999969E-3,,,,,-770.799990278E-6,592.000007629E-3,
,,,-770.399987232E-6,-4.72000008E-3,,,,,-770.399987232E-6,584.000051022E-3,
,,,-769.999984186E-6,-5.11999987E-3,,,,,-769.999984186E-6,576.000034809E-3,
,,,-769.599981140E-6,-4.87999991E-3,,,,,-769.599981140E-6,584.000051022E-3,
,,,-769.199978095E-6,-4.47999965E-3,,,,,-769.199978095E-6,576.000034809E-3,
,,,-768.799975049E-6,-4.72000008E-3,,,,,-768.799975049E-6,576.000034809E-3,
,,,-768.399972003E-6,-4.79999976E-3,,,,,-768.399972003E-6,584.000051022E-3,
,,,-768.000027165E-6,-4.55999980E-3,,,,,-768.000027165E-6,584.000051022E-3,
,,,-767.600024119E-6,-4.79999976E-3,,,,,-767.600024119E-6,592.000007629E-3,
,,,-767.200021073E-6,-4.79999976E-3,,,,,-767.200021073E-6,584.000051022E-3,
,,,-766.800018027E-6,-5.11999987E-3,,,,,-766.800018027E-6,576.000034809E-3,
,,,-766.400014982E-6,-4.72000008E-3,,,,,-766.400014982E-6,584.000051022E-3,
,,,-766.000011936E-6,-4.96000005E-3,,,,,-766.000011936E-6,592.000007629E-3,
,,,-765.600008890E-6,-4.87999991E-3,,,,,-765.600008890E-6,600.000023842E-3,
,,,-765.200005844E-6,-5.03999973E-3,,,,,-765.200005844E-6,592.000007629E-3,
,,,-764.800002798E-6,-4.79999976E-3,,,,,-764.800002798E-6,584.000051022E-3,
,,,-764.399999753E-6,-4.79999976E-3,,,,,-764.399999753E-6,592.000007629E-3,
,,,-763.999996707E-6,-5.27999969E-3,,,,,-763.999996707E-6,584.000051022E-3,
,,,-763.599993661E-6,-4.96000005E-3,,,,,-763.599993661E-6,584.000051022E-3,
,,,-763.199990615E-6,-5.11999987E-3,,,,,-763.199990615E-6,584.000051022E-3,
,,,-762.799987569E-6,-4.39999998E-3,,,,,-762.799987569E-6,584.000051022E-3,
,,,-762.399984524E-6,-5.11999987E-3,,,,,-762.399984524E-6,584.000051022E-3,
