03_lab/data/optical-cavity-day3/backup/multiple_L3cm_mar26_434.csv

Record Length,2500,Points,583.999964874E-6,-4.99999989E-3,,Record Length,2500,Points,583.999964874E-6,512.000024319E-3,
Sample Interval,400.00000467E-9,s,584.399967920E-6,-4.60000010E-3,,Sample Interval,400.00000467E-9,s,584.399967920E-6,504.000008106E-3,
Trigger Point,-1.4600000E3,Samples,584.799970966E-6,-4.60000010E-3,,Trigger Point,-1.4600000E3,Samples,584.799970966E-6,512.000024319E-3,
,,,585.199974012E-6,-4.79999976E-3,,,,,585.199974012E-6,504.000008106E-3,
,,,585.599977057E-6,-4.79999976E-3,,,,,585.599977057E-6,496.000021696E-3,
,,,585.999980103E-6,-4.99999989E-3,,,,,585.999980103E-6,504.000008106E-3,
Source,CH1,,586.399983149E-6,-4.39999998E-3,,Source,CH2,,586.399983149E-6,496.000021696E-3,
Vertical Units,Volts,,586.799986195E-6,-3.99999972E-3,,Vertical Units,Volts,,586.799986195E-6,504.000008106E-3,
Vertical Scale,4.99999987E-3,,587.199989241E-6,-4.60000010E-3,,Vertical Scale,200.00000950E-3,,587.199989241E-6,496.000021696E-3,
Vertical Offset,0,,587.599992286E-6,-4.39999998E-3,,Vertical Offset,0,,587.599992286E-6,504.000008106E-3,
Horizontal Units,s,,587.999937125E-6,-4.39999998E-3,,Horizontal Units,s,,587.999937125E-6,504.000008106E-3,
Horizontal Scale,100.0000012E-6,,588.399940170E-6,-4.79999976E-3,,Horizontal Scale,100.0000012E-6,,588.399940170E-6,496.000021696E-3,
Pt Fmt,Y,,588.799943216E-6,-3.99999972E-3,,Pt Fmt,Y,,588.799943216E-6,504.000008106E-3,
Yzero,-1.4000000,,589.199946262E-6,-3.99999972E-3,,Yzero,-2.88000000,,589.199946262E-6,504.000008106E-3,
Probe Atten,1.000000,,589.599949308E-6,-3.39999981E-3,,Probe Atten,1.000000,,589.599949308E-6,496.000021696E-3,
,,,589.999952354E-6,-3.79999983E-3,,,,,589.999952354E-6,496.000021696E-3,
Note,TDS 1002B - 4:34:30 PM   3/26/2018,,590.399955399E-6,-3.19999992E-3,,Note,TDS 1002B - 4:34:30 PM   3/26/2018,,590.399955399E-6,496.000021696E-3,
,,,590.799958445E-6,-3.39999981E-3,,,,,590.799958445E-6,488.000035286E-3,
,,,591.199961491E-6,-3.19999992E-3,,,,,591.199961491E-6,496.000021696E-3,
,,,591.599964537E-6,-2.6000000E-3,,,,,591.599964537E-6,480.000019073E-3,
,,,591.999967583E-6,-3.59999994E-3,,,,,591.999967583E-6,488.000035286E-3,
,,,592.399970628E-6,-3.59999994E-3,,,,,592.399970628E-6,488.000035286E-3,
,,,592.799973674E-6,-3.79999983E-3,,,,,592.799973674E-6,488.000035286E-3,
,,,593.199976720E-6,-3.39999981E-3,,,,,593.199976720E-6,488.000035286E-3,
,,,593.599979766E-6,-4.39999998E-3,,,,,593.599979766E-6,480.000019073E-3,
,,,593.999982812E-6,-4.39999998E-3,,,,,593.999982812E-6,488.000035286E-3,
,,,594.399985857E-6,-4.79999976E-3,,,,,594.399985857E-6,488.000035286E-3,
,,,594.799988903E-6,-4.39999998E-3,,,,,594.799988903E-6,488.000035286E-3,
,,,595.199991949E-6,-4.19999985E-3,,,,,595.199991949E-6,480.000019073E-3,
,,,595.599936787E-6,-4.60000010E-3,,,,,595.599936787E-6,488.000035286E-3,
,,,595.999939833E-6,-5.20000001E-3,,,,,595.999939833E-6,488.000035286E-3,
,,,596.399942879E-6,-4.99999989E-3,,,,,596.399942879E-6,480.000019073E-3,
,,,596.799945924E-6,-5.20000001E-3,,,,,596.799945924E-6,488.000035286E-3,
,,,597.199948970E-6,-4.60000010E-3,,,,,597.199948970E-6,480.000019073E-3,
,,,597.599952016E-6,-4.60000010E-3,,,,,597.599952016E-6,480.000019073E-3,
,,,597.999955062E-6,-4.19999985E-3,,,,,597.999955062E-6,472.000032663E-3,
,,,598.399958108E-6,-4.39999998E-3,,,,,598.399958108E-6,488.000035286E-3,
,,,598.799961153E-6,-4.79999976E-3,,,,,598.799961153E-6,480.000019073E-3,
,,,599.199964199E-6,-4.60000010E-3,,,,,599.199964199E-6,472.000032663E-3,
,,,599.599967245E-6,-4.60000010E-3,,,,,599.599967245E-6,472.000032663E-3,
,,,599.999970291E-6,-4.39999998E-3,,,,,599.999970291E-6,480.000019073E-3,
,,,600.399973337E-6,-4.19999985E-3,,,,,600.399973337E-6,464.000016451E-3,
,,,600.799976382E-6,-3.99999972E-3,,,,,600.799976382E-6,480.000019073E-3,
,,,601.199979428E-6,-5.20000001E-3,,,,,601.199979428E-6,464.000016451E-3,
,,,601.599982474E-6,-5.39999967E-3,,,,,601.599982474E-6,480.000019073E-3,
,,,601.999985520E-6,-4.99999989E-3,,,,,601.999985520E-6,472.000032663E-3,
,,,602.399988566E-6,-4.79999976E-3,,,,,602.399988566E-6,472.000032663E-3,
,,,602.799991611E-6,-4.39999998E-3,,,,,602.799991611E-6,480.000019073E-3,
,,,603.199936450E-6,-4.79999976E-3,,,,,603.199936450E-6,472.000032663E-3,
,,,603.599939495E-6,-4.99999989E-3,,,,,603.599939495E-6,464.000016451E-3,
,,,603.999942541E-6,-4.99999989E-3,,,,,603.999942541E-6,464.000016451E-3,
,,,604.399945587E-6,-4.99999989E-3,,,,,604.399945587E-6,464.000016451E-3,
,,,604.799948633E-6,-4.79999976E-3,,,,,604.799948633E-6,464.000016451E-3,
,,,605.199951679E-6,-4.99999989E-3,,,,,605.199951679E-6,464.000016451E-3,
,,,605.599954724E-6,-4.79999976E-3,,,,,605.599954724E-6,464.000016451E-3,
,,,605.999957770E-6,-5.20000001E-3,,,,,605.999957770E-6,464.000016451E-3,
,,,606.399960816E-6,-4.19999985E-3,,,,,606.399960816E-6,456.000030041E-3,
,,,606.799963862E-6,-4.99999989E-3,,,,,606.799963862E-6,456.000030041E-3,
,,,607.199966908E-6,-4.99999989E-3,,,,,607.199966908E-6,472.000032663E-3,
,,,607.599969953E-6,-4.60000010E-3,,,,,607.599969953E-6,472.000032663E-3,
,,,607.999972999E-6,-4.79999976E-3,,,,,607.999972999E-6,456.000030041E-3,
,,,608.399976045E-6,-4.99999989E-3,,,,,608.399976045E-6,464.000016451E-3,
,,,608.799979091E-6,-5.20000001E-3,,,,,608.799979091E-6,456.000030041E-3,
,,,609.199982136E-6,-4.60000010E-3,,,,,609.199982136E-6,464.000016451E-3,
,,,609.599985182E-6,-4.39999998E-3,,,,,609.599985182E-6,456.000030041E-3,
,,,609.999988228E-6,-4.99999989E-3,,,,,609.999988228E-6,456.000030041E-3,
,,,610.399991274E-6,-4.99999989E-3,,,,,610.399991274E-6,456.000030041E-3,
,,,610.799936112E-6,-5.39999967E-3,,,,,610.799936112E-6,456.000030041E-3,
,,,611.199939158E-6,-5.20000001E-3,,,,,611.199939158E-6,456.000030041E-3,
,,,611.599942204E-6,-4.39999998E-3,,,,,611.599942204E-6,464.000016451E-3,
,,,611.999945249E-6,-5.59999980E-3,,,,,611.999945249E-6,448.000013828E-3,
,,,612.399948295E-6,-4.99999989E-3,,,,,612.399948295E-6,456.000030041E-3,
,,,612.799951341E-6,-4.60000010E-3,,,,,612.799951341E-6,448.000013828E-3,
,,,613.199954387E-6,-4.79999976E-3,,,,,613.199954387E-6,456.000030041E-3,
,,,613.599957433E-6,-4.99999989E-3,,,,,613.599957433E-6,448.000013828E-3,
,,,613.999960478E-6,-5.20000001E-3,,,,,613.999960478E-6,456.000030041E-3,
,,,614.399963524E-6,-4.60000010E-3,,,,,614.399963524E-6,448.000013828E-3,
,,,614.799966570E-6,-5.20000001E-3,,,,,614.799966570E-6,448.000013828E-3,
,,,615.199969616E-6,-4.79999976E-3,,,,,615.199969616E-6,440.000027418E-3,
,,,615.599972662E-6,-5.20000001E-3,,,,,615.599972662E-6,448.000013828E-3,
,,,615.999975707E-6,-4.79999976E-3,,,,,615.999975707E-6,440.000027418E-3,
,,,616.399978753E-6,-5.39999967E-3,,,,,616.399978753E-6,448.000013828E-3,
,,,616.799981799E-6,-4.99999989E-3,,,,,616.799981799E-6,448.000013828E-3,
,,,617.199984845E-6,-4.39999998E-3,,,,,617.199984845E-6,440.000027418E-3,
,,,617.599987891E-6,-5.20000001E-3,,,,,617.599987891E-6,448.000013828E-3,
,,,617.999990936E-6,-5.20000001E-3,,,,,617.999990936E-6,440.000027418E-3,
,,,618.399993982E-6,-4.39999998E-3,,,,,618.399993982E-6,448.000013828E-3,
,,,618.799938820E-6,-4.79999976E-3,,,,,618.799938820E-6,440.000027418E-3,
,,,619.199941866E-6,-4.79999976E-3,,,,,619.199941866E-6,432.000011206E-3,
,,,619.599944912E-6,-4.60000010E-3,,,,,619.599944912E-6,440.000027418E-3,
,,,619.999947958E-6,-3.99999972E-3,,,,,619.999947958E-6,432.000011206E-3,
,,,620.399951003E-6,-4.60000010E-3,,,,,620.399951003E-6,440.000027418E-3,
,,,620.799954049E-6,-4.79999976E-3,,,,,620.799954049E-6,448.000013828E-3,
,,,621.199957095E-6,-4.39999998E-3,,,,,621.199957095E-6,432.000011206E-3,
,,,621.599960141E-6,-4.79999976E-3,,,,,621.599960141E-6,432.000011206E-3,
,,,621.999963187E-6,-3.99999972E-3,,,,,621.999963187E-6,440.000027418E-3,
,,,622.399966232E-6,-4.19999985E-3,,,,,622.399966232E-6,424.000024796E-3,
,,,622.799969278E-6,-4.60000010E-3,,,,,622.799969278E-6,432.000011206E-3,
,,,623.199972324E-6,-4.19999985E-3,,,,,623.199972324E-6,424.000024796E-3,
,,,623.599975370E-6,-4.19999985E-3,,,,,623.599975370E-6,432.000011206E-3,
,,,623.999978416E-6,-3.79999983E-3,,,,,623.999978416E-6,432.000011206E-3,
,,,624.399981461E-6,-4.60000010E-3,,,,,624.399981461E-6,432.000011206E-3,
,,,624.799984507E-6,-3.39999981E-3,,,,,624.799984507E-6,424.000024796E-3,
,,,625.199987553E-6,-4.79999976E-3,,,,,625.199987553E-6,424.000024796E-3,
,,,625.599990599E-6,-4.79999976E-3,,,,,625.599990599E-6,432.000011206E-3,
,,,625.999993645E-6,-4.19999985E-3,,,,,625.999993645E-6,432.000011206E-3,
,,,626.399938483E-6,-4.60000010E-3,,,,,626.399938483E-6,424.000024796E-3,
,,,626.799941529E-6,-3.79999983E-3,,,,,626.799941529E-6,424.000024796E-3,
,,,627.199944574E-6,-4.39999998E-3,,,,,627.199944574E-6,416.000008583E-3,
,,,627.599947620E-6,-4.39999998E-3,,,,,627.599947620E-6,424.000024796E-3,
,,,627.999950666E-6,-4.99999989E-3,,,,,627.999950666E-6,424.000024796E-3,
,,,628.399953712E-6,-4.99999989E-3,,,,,628.399953712E-6,416.000008583E-3,
,,,628.799956758E-6,-4.60000010E-3,,,,,628.799956758E-6,416.000008583E-3,
,,,629.199959803E-6,-4.99999989E-3,,,,,629.199959803E-6,416.000008583E-3,
,,,629.599962849E-6,-4.79999976E-3,,,,,629.599962849E-6,424.000024796E-3,
,,,629.999965895E-6,-4.79999976E-3,,,,,629.999965895E-6,424.000024796E-3,
,,,630.399968941E-6,-4.60000010E-3,,,,,630.399968941E-6,424.000024796E-3,
,,,630.799971987E-6,-4.39999998E-3,,,,,630.799971987E-6,416.000008583E-3,
,,,631.199975032E-6,-5.20000001E-3,,,,,631.199975032E-6,408.000022173E-3,
,,,631.599978078E-6,-4.60000010E-3,,,,,631.599978078E-6,416.000008583E-3,
,,,631.999981124E-6,-4.99999989E-3,,,,,631.999981124E-6,416.000008583E-3,
,,,632.399984170E-6,-4.19999985E-3,,,,,632.399984170E-6,416.000008583E-3,
,,,632.799987216E-6,-5.20000001E-3,,,,,632.799987216E-6,408.000022173E-3,
,,,633.199990261E-6,-4.39999998E-3,,,,,633.199990261E-6,416.000008583E-3,
,,,633.599993307E-6,-4.79999976E-3,,,,,633.599993307E-6,416.000008583E-3,
,,,633.999938145E-6,-4.79999976E-3,,,,,633.999938145E-6,408.000022173E-3,
,,,634.399941191E-6,-5.20000001E-3,,,,,634.399941191E-6,408.000022173E-3,
,,,634.799944237E-6,-4.79999976E-3,,,,,634.799944237E-6,408.000022173E-3,
,,,635.199947283E-6,-4.99999989E-3,,,,,635.199947283E-6,408.000022173E-3,
,,,635.599950328E-6,-5.59999980E-3,,,,,635.599950328E-6,400.00000596E-3,
,,,635.999953374E-6,-5.20000001E-3,,,,,635.999953374E-6,400.00000596E-3,
,,,636.399956420E-6,-4.79999976E-3,,,,,636.399956420E-6,408.000022173E-3,
,,,636.799959466E-6,-5.59999980E-3,,,,,636.799959466E-6,408.000022173E-3,
,,,637.199962512E-6,-5.20000001E-3,,,,,637.199962512E-6,400.00000596E-3,
,,,637.599965557E-6,-4.99999989E-3,,,,,637.599965557E-6,400.00000596E-3,
,,,637.999968603E-6,-5.39999967E-3,,,,,637.999968603E-6,400.00000596E-3,
,,,638.399971649E-6,-4.60000010E-3,,,,,638.399971649E-6,400.00000596E-3,
,,,638.799974695E-6,-5.20000001E-3,,,,,638.799974695E-6,400.00000596E-3,
,,,639.199977741E-6,-5.39999967E-3,,,,,639.199977741E-6,400.00000596E-3,
,,,639.599980786E-6,-5.39999967E-3,,,,,639.599980786E-6,400.00000596E-3,
,,,639.999983832E-6,-5.20000001E-3,,,,,639.999983832E-6,400.00000596E-3,
,,,640.399986878E-6,-4.79999976E-3,,,,,640.399986878E-6,400.00000596E-3,
,,,640.799989924E-6,-4.99999989E-3,,,,,640.799989924E-6,400.00000596E-3,
,,,641.199992970E-6,-4.79999976E-3,,,,,641.199992970E-6,400.00000596E-3,
,,,641.599937808E-6,-5.20000001E-3,,,,,641.599937808E-6,408.000022173E-3,
,,,641.999940854E-6,-5.39999967E-3,,,,,641.999940854E-6,392.00001955E-3,
,,,642.399943899E-6,-5.20000001E-3,,,,,642.399943899E-6,408.000022173E-3,
,,,642.799946945E-6,-5.20000001E-3,,,,,642.799946945E-6,392.00001955E-3,
,,,643.199949991E-6,-4.60000010E-3,,,,,643.199949991E-6,392.00001955E-3,
,,,643.599953037E-6,-4.99999989E-3,,,,,643.599953037E-6,400.00000596E-3,
,,,643.999956083E-6,-4.79999976E-3,,,,,643.999956083E-6,392.00001955E-3,
,,,644.399959128E-6,-4.79999976E-3,,,,,644.399959128E-6,384.00000334E-3,
,,,644.799962174E-6,-4.60000010E-3,,,,,644.799962174E-6,392.00001955E-3,
,,,645.199965220E-6,-4.99999989E-3,,,,,645.199965220E-6,392.00001955E-3,
,,,645.599968266E-6,-5.59999980E-3,,,,,645.599968266E-6,384.00000334E-3,
,,,645.999971312E-6,-5.20000001E-3,,,,,645.999971312E-6,384.00000334E-3,
,,,646.399974357E-6,-5.39999967E-3,,,,,646.399974357E-6,384.00000334E-3,
,,,646.799977403E-6,-4.79999976E-3,,,,,646.799977403E-6,392.00001955E-3,
,,,647.199980449E-6,-5.39999967E-3,,,,,647.199980449E-6,384.00000334E-3,
,,,647.599983495E-6,-5.20000001E-3,,,,,647.599983495E-6,376.00001693E-3,
,,,647.999986541E-6,-4.39999998E-3,,,,,647.999986541E-6,392.00001955E-3,
,,,648.399989586E-6,-5.20000001E-3,,,,,648.399989586E-6,384.00000334E-3,
,,,648.799992632E-6,-5.20000001E-3,,,,,648.799992632E-6,376.00001693E-3,
,,,649.199937470E-6,-5.20000001E-3,,,,,649.199937470E-6,384.00000334E-3,
,,,649.599940516E-6,-4.39999998E-3,,,,,649.599940516E-6,384.00000334E-3,
,,,649.999943562E-6,-4.60000010E-3,,,,,649.999943562E-6,376.00001693E-3,
,,,650.399946608E-6,-4.39999998E-3,,,,,650.399946608E-6,376.00001693E-3,
,,,650.799949653E-6,-4.99999989E-3,,,,,650.799949653E-6,376.00001693E-3,
,,,651.199952699E-6,-4.79999976E-3,,,,,651.199952699E-6,376.00001693E-3,
,,,651.599955745E-6,-4.39999998E-3,,,,,651.599955745E-6,376.00001693E-3,
,,,651.999958791E-6,-4.60000010E-3,,,,,651.999958791E-6,368.00003052E-3,
,,,652.399961837E-6,-4.60000010E-3,,,,,652.399961837E-6,376.00001693E-3,
,,,652.799964882E-6,-4.99999989E-3,,,,,652.799964882E-6,368.00003052E-3,
,,,653.199967928E-6,-4.99999989E-3,,,,,653.199967928E-6,376.00001693E-3,
,,,653.599970974E-6,-4.79999976E-3,,,,,653.599970974E-6,376.00001693E-3,
,,,653.999974020E-6,-5.20000001E-3,,,,,653.999974020E-6,368.00003052E-3,
,,,654.399977066E-6,-4.60000010E-3,,,,,654.399977066E-6,376.00001693E-3,
,,,654.799980111E-6,-4.79999976E-3,,,,,654.799980111E-6,376.00001693E-3,
,,,655.199983157E-6,-4.99999989E-3,,,,,655.199983157E-6,368.00003052E-3,
,,,655.599986203E-6,-4.99999989E-3,,,,,655.599986203E-6,368.00003052E-3,
,,,655.999989249E-6,-4.79999976E-3,,,,,655.999989249E-6,360.00001431E-3,
,,,656.399992295E-6,-3.99999972E-3,,,,,656.399992295E-6,368.00003052E-3,
,,,656.799937133E-6,-4.39999998E-3,,,,,656.799937133E-6,368.00003052E-3,
,,,657.199940179E-6,-4.60000010E-3,,,,,657.199940179E-6,360.00001431E-3,
,,,657.599943224E-6,-5.39999967E-3,,,,,657.599943224E-6,360.00001431E-3,
,,,657.999946270E-6,-4.19999985E-3,,,,,657.999946270E-6,368.00003052E-3,
,,,658.399949316E-6,-4.99999989E-3,,,,,658.399949316E-6,360.00001431E-3,
,,,658.799952362E-6,-5.20000001E-3,,,,,658.799952362E-6,360.00001431E-3,
,,,659.199955408E-6,-3.79999983E-3,,,,,659.199955408E-6,360.00001431E-3,
,,,659.599958453E-6,-4.60000010E-3,,,,,659.599958453E-6,360.00001431E-3,
,,,659.999961499E-6,-4.39999998E-3,,,,,659.999961499E-6,360.00001431E-3,
,,,660.399964545E-6,-4.19999985E-3,,,,,660.399964545E-6,368.00003052E-3,
,,,660.799967591E-6,-5.20000001E-3,,,,,660.799967591E-6,360.00001431E-3,
,,,661.199970637E-6,-4.79999976E-3,,,,,661.199970637E-6,360.00001431E-3,
,,,661.599973682E-6,-5.59999980E-3,,,,,661.599973682E-6,352.00002789E-3,
,,,661.999976728E-6,-4.39999998E-3,,,,,661.999976728E-6,360.00001431E-3,
,,,662.399979774E-6,-6.00000005E-3,,,,,662.399979774E-6,352.00002789E-3,
,,,662.799982820E-6,-4.79999976E-3,,,,,662.799982820E-6,360.00001431E-3,
,,,663.199985866E-6,-4.60000010E-3,,,,,663.199985866E-6,352.00002789E-3,
,,,663.599988911E-6,-4.79999976E-3,,,,,663.599988911E-6,352.00002789E-3,
,,,663.999991957E-6,-4.79999976E-3,,,,,663.999991957E-6,352.00002789E-3,
,,,664.399936795E-6,-4.19999985E-3,,,,,664.399936795E-6,344.00001168E-3,
,,,664.799939841E-6,-4.79999976E-3,,,,,664.799939841E-6,352.00002789E-3,
,,,665.199942887E-6,-4.60000010E-3,,,,,665.199942887E-6,352.00002789E-3,
,,,665.599945933E-6,-5.39999967E-3,,,,,665.599945933E-6,352.00002789E-3,
,,,665.999948978E-6,-4.60000010E-3,,,,,665.999948978E-6,344.00001168E-3,
,,,666.399952024E-6,-4.79999976E-3,,,,,666.399952024E-6,344.00001168E-3,
,,,666.799955070E-6,-5.79999993E-3,,,,,666.799955070E-6,352.00002789E-3,
,,,667.199958116E-6,-4.99999989E-3,,,,,667.199958116E-6,344.00001168E-3,
,,,667.599961162E-6,-4.79999976E-3,,,,,667.599961162E-6,344.00001168E-3,
,,,667.999964207E-6,-4.19999985E-3,,,,,667.999964207E-6,344.00001168E-3,
,,,668.399967253E-6,-4.99999989E-3,,,,,668.399967253E-6,344.00001168E-3,
,,,668.799970299E-6,-5.20000001E-3,,,,,668.799970299E-6,344.00001168E-3,
,,,669.199973345E-6,-4.99999989E-3,,,,,669.199973345E-6,344.00001168E-3,
,,,669.599976391E-6,-4.99999989E-3,,,,,669.599976391E-6,344.00001168E-3,
,,,669.999979436E-6,-5.39999967E-3,,,,,669.999979436E-6,336.00002527E-3,
,,,670.399982482E-6,-4.19999985E-3,,,,,670.399982482E-6,344.00001168E-3,
,,,670.799985528E-6,-5.20000001E-3,,,,,670.799985528E-6,336.00002527E-3,
,,,671.199988574E-6,-5.20000001E-3,,,,,671.199988574E-6,344.00001168E-3,
,,,671.599991620E-6,-4.79999976E-3,,,,,671.599991620E-6,344.00001168E-3,
,,,671.999994665E-6,-4.60000010E-3,,,,,671.999994665E-6,344.00001168E-3,
,,,672.399939504E-6,-4.99999989E-3,,,,,672.399939504E-6,336.00002527E-3,
,,,672.799942549E-6,-3.99999972E-3,,,,,672.799942549E-6,336.00002527E-3,
,,,673.199945595E-6,-4.99999989E-3,,,,,673.199945595E-6,336.00002527E-3,
,,,673.599948641E-6,-4.79999976E-3,,,,,673.599948641E-6,336.00002527E-3,
,,,673.999951687E-6,-5.59999980E-3,,,,,673.999951687E-6,328.00000906E-3,
,,,674.399954733E-6,-4.39999998E-3,,,,,674.399954733E-6,328.00000906E-3,
,,,674.799957778E-6,-4.99999989E-3,,,,,674.799957778E-6,328.00000906E-3,
,,,675.199960824E-6,-4.99999989E-3,,,,,675.199960824E-6,336.00002527E-3,
,,,675.599963870E-6,-4.99999989E-3,,,,,675.599963870E-6,328.00000906E-3,
,,,675.999966916E-6,-4.79999976E-3,,,,,675.999966916E-6,328.00000906E-3,
,,,676.399969961E-6,-5.39999967E-3,,,,,676.399969961E-6,328.00000906E-3,
,,,676.799973007E-6,-5.39999967E-3,,,,,676.799973007E-6,328.00000906E-3,
,,,677.199976053E-6,-5.39999967E-3,,,,,677.199976053E-6,328.00000906E-3,
,,,677.599979099E-6,-5.59999980E-3,,,,,677.599979099E-6,328.00000906E-3,
,,,677.999982145E-6,-4.99999989E-3,,,,,677.999982145E-6,320.00002265E-3,
,,,678.399985190E-6,-4.79999976E-3,,,,,678.399985190E-6,328.00000906E-3,
,,,678.799988236E-6,-4.19999985E-3,,,,,678.799988236E-6,320.00002265E-3,
,,,679.199991282E-6,-5.39999967E-3,,,,,679.199991282E-6,320.00002265E-3,
,,,679.599994328E-6,-4.79999976E-3,,,,,679.599994328E-6,328.00000906E-3,
,,,679.999939166E-6,-5.59999980E-3,,,,,679.999939166E-6,320.00002265E-3,
,,,680.399942212E-6,-5.20000001E-3,,,,,680.399942212E-6,312.00000644E-3,
,,,680.799945258E-6,-4.99999989E-3,,,,,680.799945258E-6,320.00002265E-3,
,,,681.199948303E-6,-4.99999989E-3,,,,,681.199948303E-6,320.00002265E-3,
,,,681.599951349E-6,-4.39999998E-3,,,,,681.599951349E-6,320.00002265E-3,
,,,681.999954395E-6,-5.39999967E-3,,,,,681.999954395E-6,312.00000644E-3,
,,,682.399957441E-6,-5.59999980E-3,,,,,682.399957441E-6,320.00002265E-3,
,,,682.799960487E-6,-4.99999989E-3,,,,,682.799960487E-6,320.00002265E-3,
,,,683.199963532E-6,-4.79999976E-3,,,,,683.199963532E-6,320.00002265E-3,
,,,683.599966578E-6,-4.19999985E-3,,,,,683.599966578E-6,312.00000644E-3,
,,,683.999969624E-6,-4.99999989E-3,,,,,683.999969624E-6,320.00002265E-3,
,,,684.399972670E-6,-4.79999976E-3,,,,,684.399972670E-6,312.00000644E-3,
,,,684.799975716E-6,-4.60000010E-3,,,,,684.799975716E-6,312.00000644E-3,
,,,685.199978761E-6,-5.39999967E-3,,,,,685.199978761E-6,312.00000644E-3,
,,,685.599981807E-6,-4.79999976E-3,,,,,685.599981807E-6,304.00002003E-3,
,,,685.999984853E-6,-4.60000010E-3,,,,,685.999984853E-6,312.00000644E-3,
,,,686.399987899E-6,-4.60000010E-3,,,,,686.399987899E-6,312.00000644E-3,
,,,686.799990945E-6,-4.99999989E-3,,,,,686.799990945E-6,312.00000644E-3,
,,,687.199993990E-6,-4.60000010E-3,,,,,687.199993990E-6,304.00002003E-3,
,,,687.599938828E-6,-5.20000001E-3,,,,,687.599938828E-6,304.00002003E-3,
,,,687.999941874E-6,-4.99999989E-3,,,,,687.999941874E-6,312.00000644E-3,
,,,688.399944920E-6,-4.99999989E-3,,,,,688.399944920E-6,304.00002003E-3,
,,,688.799947966E-6,-5.59999980E-3,,,,,688.799947966E-6,304.00002003E-3,
,,,689.199951012E-6,-5.20000001E-3,,,,,689.199951012E-6,304.00002003E-3,
