03_lab/data/optical-cavity-day3/backup/multiple_L28cm_mar26_448.csv

Record Length,2500,Points,-1.6200001E-3,-4.39999998E-3,,Record Length,2500,Points,-1.6200001E-3,219.99999881E-3,
Sample Interval,2.0000000E-6,s,-1.6180001E-3,-4.55999980E-3,,Sample Interval,2.0000000E-6,s,-1.6180001E-3,219.99999881E-3,
Trigger Point,810.000057980,Samples,-1.6160001E-3,-4.55999980E-3,,Trigger Point,810.000057980,Samples,-1.6160001E-3,199.99998808E-3,
,,,-1.6140001E-3,-4.72000008E-3,,,,,-1.6140001E-3,219.99999881E-3,
,,,-1.6120002E-3,-4.47999965E-3,,,,,-1.6120002E-3,199.99998808E-3,
,,,-1.6100002E-3,-4.31999983E-3,,,,,-1.6100002E-3,199.99998808E-3,
Source,CH1,,-1.6080001E-3,-4.96000005E-3,,Source,CH2,,-1.6080001E-3,179.99999225E-3,
Vertical Units,Volts,,-1.6060001E-3,-4.63999994E-3,,Vertical Units,Volts,,-1.6060001E-3,199.99998808E-3,
Vertical Scale,1.9999999E-3,,-1.6040001E-3,-5.03999973E-3,,Vertical Scale,499.999988824E-3,,-1.6040001E-3,179.99999225E-3,
Vertical Offset,0,,-1.6020001E-3,-4.55999980E-3,,Vertical Offset,0,,-1.6020001E-3,219.99999881E-3,
Horizontal Units,s,,-1.6000001E-3,-5.03999973E-3,,Horizontal Units,s,,-1.6000001E-3,199.99998808E-3,
Horizontal Scale,499.999998738E-6,,-1.5980001E-3,-4.87999991E-3,,Horizontal Scale,499.999998738E-6,,-1.5980001E-3,179.99999225E-3,
Pt Fmt,Y,,-1.5960002E-3,-4.96000005E-3,,Pt Fmt,Y,,-1.5960002E-3,179.99999225E-3,
Yzero,-640.000000000E-3,,-1.5940001E-3,-5.03999973E-3,,Yzero,-2.88000000,,-1.5940001E-3,179.99999225E-3,
Probe Atten,1.000000,,-1.5920001E-3,-4.72000008E-3,,Probe Atten,1.000000,,-1.5920001E-3,179.99999225E-3,
,,,-1.5900001E-3,-4.55999980E-3,,,,,-1.5900001E-3,199.99998808E-3,
Note,TDS 1002B - 4:48:17 PM   3/26/2018,,-1.5880001E-3,-4.39999998E-3,,Note,TDS 1002B - 4:48:17 PM   3/26/2018,,-1.5880001E-3,199.99998808E-3,
,,,-1.5860001E-3,-4.39999998E-3,,,,,-1.5860001E-3,179.99999225E-3,
,,,-1.5840001E-3,-4.55999980E-3,,,,,-1.5840001E-3,199.99998808E-3,
,,,-1.5820001E-3,-4.63999994E-3,,,,,-1.5820001E-3,179.99999225E-3,
,,,-1.5800002E-3,-4.55999980E-3,,,,,-1.5800002E-3,199.99998808E-3,
,,,-1.5780001E-3,-4.55999980E-3,,,,,-1.5780001E-3,199.99998808E-3,
,,,-1.5760001E-3,-4.79999976E-3,,,,,-1.5760001E-3,179.99999225E-3,
,,,-1.5740001E-3,-4.55999980E-3,,,,,-1.5740001E-3,159.99999642E-3,
,,,-1.5720001E-3,-4.55999980E-3,,,,,-1.5720001E-3,179.99999225E-3,
,,,-1.5700001E-3,-4.23999969E-3,,,,,-1.5700001E-3,179.99999225E-3,
,,,-1.5680001E-3,-4.96000005E-3,,,,,-1.5680001E-3,179.99999225E-3,
,,,-1.5660002E-3,-4.23999969E-3,,,,,-1.5660002E-3,179.99999225E-3,
,,,-1.5640002E-3,-4.96000005E-3,,,,,-1.5640002E-3,179.99999225E-3,
,,,-1.5620001E-3,-4.87999991E-3,,,,,-1.5620001E-3,179.99999225E-3,
,,,-1.5600001E-3,-4.47999965E-3,,,,,-1.5600001E-3,179.99999225E-3,
,,,-1.5580001E-3,-4.55999980E-3,,,,,-1.5580001E-3,159.99999642E-3,
,,,-1.5560001E-3,-4.31999983E-3,,,,,-1.5560001E-3,179.99999225E-3,
,,,-1.5540001E-3,-4.16000001E-3,,,,,-1.5540001E-3,179.99999225E-3,
,,,-1.5520001E-3,-4.47999965E-3,,,,,-1.5520001E-3,159.99999642E-3,
,,,-1.5500002E-3,-4.55999980E-3,,,,,-1.5500002E-3,179.99999225E-3,
,,,-1.5480001E-3,-4.07999987E-3,,,,,-1.5480001E-3,159.99999642E-3,
,,,-1.5460001E-3,-4.55999980E-3,,,,,-1.5460001E-3,159.99999642E-3,
,,,-1.5440001E-3,-3.83999990E-3,,,,,-1.5440001E-3,159.99999642E-3,
,,,-1.5420001E-3,-4.31999983E-3,,,,,-1.5420001E-3,140.0000006E-3,
,,,-1.5400001E-3,-3.92000005E-3,,,,,-1.5400001E-3,179.99999225E-3,
,,,-1.5380001E-3,-3.35999997E-3,,,,,-1.5380001E-3,159.99999642E-3,
,,,-1.5360001E-3,-3.59999994E-3,,,,,-1.5360001E-3,159.99999642E-3,
,,,-1.5340002E-3,-3.99999972E-3,,,,,-1.5340002E-3,159.99999642E-3,
,,,-1.5320001E-3,-3.51999979E-3,,,,,-1.5320001E-3,159.99999642E-3,
,,,-1.5300001E-3,-3.92000005E-3,,,,,-1.5300001E-3,159.99999642E-3,
,,,-1.5280001E-3,-3.92000005E-3,,,,,-1.5280001E-3,159.99999642E-3,
,,,-1.5260001E-3,-4.23999969E-3,,,,,-1.5260001E-3,140.0000006E-3,
,,,-1.5240001E-3,-4.23999969E-3,,,,,-1.5240001E-3,159.99999642E-3,
,,,-1.5220001E-3,-3.92000005E-3,,,,,-1.5220001E-3,179.99999225E-3,
,,,-1.5200002E-3,-4.47999965E-3,,,,,-1.5200002E-3,140.0000006E-3,
,,,-1.5180002E-3,-4.07999987E-3,,,,,-1.5180002E-3,159.99999642E-3,
,,,-1.5160001E-3,-3.75999999E-3,,,,,-1.5160001E-3,140.0000006E-3,
,,,-1.5140001E-3,-4.55999980E-3,,,,,-1.5140001E-3,140.0000006E-3,
,,,-1.5120001E-3,-4.16000001E-3,,,,,-1.5120001E-3,159.99999642E-3,
,,,-1.5100001E-3,-4.55999980E-3,,,,,-1.5100001E-3,159.99999642E-3,
,,,-1.5080001E-3,-4.79999976E-3,,,,,-1.5080001E-3,140.0000006E-3,
,,,-1.5060001E-3,-4.31999983E-3,,,,,-1.5060001E-3,140.0000006E-3,
,,,-1.5040002E-3,-4.63999994E-3,,,,,-1.5040002E-3,140.0000006E-3,
,,,-1.5020001E-3,-4.55999980E-3,,,,,-1.5020001E-3,159.99999642E-3,
,,,-1.5000001E-3,-4.23999969E-3,,,,,-1.5000001E-3,140.0000006E-3,
,,,-1.4980001E-3,-4.47999965E-3,,,,,-1.4980001E-3,140.0000006E-3,
,,,-1.4960001E-3,-4.79999976E-3,,,,,-1.4960001E-3,140.0000006E-3,
,,,-1.4940001E-3,-4.55999980E-3,,,,,-1.4940001E-3,119.9999973E-3,
,,,-1.4920001E-3,-4.63999994E-3,,,,,-1.4920001E-3,119.9999973E-3,
,,,-1.4900002E-3,-4.79999976E-3,,,,,-1.4900002E-3,119.9999973E-3,
,,,-1.4880002E-3,-4.79999976E-3,,,,,-1.4880002E-3,119.9999973E-3,
,,,-1.4860001E-3,-4.23999969E-3,,,,,-1.4860001E-3,140.0000006E-3,
,,,-1.4840001E-3,-4.39999998E-3,,,,,-1.4840001E-3,119.9999973E-3,
,,,-1.4820001E-3,-4.63999994E-3,,,,,-1.4820001E-3,119.9999973E-3,
,,,-1.4800001E-3,-4.63999994E-3,,,,,-1.4800001E-3,119.9999973E-3,
,,,-1.4780001E-3,-4.39999998E-3,,,,,-1.4780001E-3,119.9999973E-3,
,,,-1.4760001E-3,-4.55999980E-3,,,,,-1.4760001E-3,140.0000006E-3,
,,,-1.4740002E-3,-4.87999991E-3,,,,,-1.4740002E-3,140.0000006E-3,
,,,-1.4720001E-3,-4.87999991E-3,,,,,-1.4720001E-3,119.9999973E-3,
,,,-1.4700001E-3,-4.72000008E-3,,,,,-1.4700001E-3,119.9999973E-3,
,,,-1.4680001E-3,-4.47999965E-3,,,,,-1.4680001E-3,119.9999973E-3,
,,,-1.4660001E-3,-4.55999980E-3,,,,,-1.4660001E-3,119.9999973E-3,
,,,-1.4640001E-3,-5.03999973E-3,,,,,-1.4640001E-3,119.9999973E-3,
,,,-1.4620001E-3,-4.55999980E-3,,,,,-1.4620001E-3,119.9999973E-3,
,,,-1.4600001E-3,-4.55999980E-3,,,,,-1.4600001E-3,119.9999973E-3,
,,,-1.4580002E-3,-4.16000001E-3,,,,,-1.4580002E-3,99.999994040E-3,
,,,-1.4560001E-3,-4.72000008E-3,,,,,-1.4560001E-3,119.9999973E-3,
,,,-1.4540001E-3,-4.07999987E-3,,,,,-1.4540001E-3,119.9999973E-3,
,,,-1.4520001E-3,-4.55999980E-3,,,,,-1.4520001E-3,99.999994040E-3,
,,,-1.4500001E-3,-4.47999965E-3,,,,,-1.4500001E-3,119.9999973E-3,
,,,-1.4480001E-3,-4.16000001E-3,,,,,-1.4480001E-3,119.9999973E-3,
,,,-1.4460001E-3,-4.47999965E-3,,,,,-1.4460001E-3,119.9999973E-3,
,,,-1.4440002E-3,-4.23999969E-3,,,,,-1.4440002E-3,119.9999973E-3,
,,,-1.4420002E-3,-4.23999969E-3,,,,,-1.4420002E-3,119.9999973E-3,
,,,-1.4400001E-3,-3.92000005E-3,,,,,-1.4400001E-3,119.9999973E-3,
,,,-1.4380001E-3,-4.63999994E-3,,,,,-1.4380001E-3,99.999994040E-3,
,,,-1.4360001E-3,-4.47999965E-3,,,,,-1.4360001E-3,119.9999973E-3,
,,,-1.4340001E-3,-4.39999998E-3,,,,,-1.4340001E-3,99.999994040E-3,
,,,-1.4320001E-3,-3.99999972E-3,,,,,-1.4320001E-3,99.999994040E-3,
,,,-1.4300001E-3,-4.79999976E-3,,,,,-1.4300001E-3,99.999994040E-3,
,,,-1.4280002E-3,-4.31999983E-3,,,,,-1.4280002E-3,119.9999973E-3,
,,,-1.4260001E-3,-4.31999983E-3,,,,,-1.4260001E-3,99.999994040E-3,
,,,-1.4240001E-3,-4.39999998E-3,,,,,-1.4240001E-3,99.999994040E-3,
,,,-1.4220001E-3,-4.55999980E-3,,,,,-1.4220001E-3,99.999994040E-3,
,,,-1.4200001E-3,-4.55999980E-3,,,,,-1.4200001E-3,99.999994040E-3,
,,,-1.4180001E-3,-3.99999972E-3,,,,,-1.4180001E-3,99.999994040E-3,
,,,-1.4160001E-3,-4.55999980E-3,,,,,-1.4160001E-3,99.999994040E-3,
,,,-1.4140001E-3,-3.99999972E-3,,,,,-1.4140001E-3,99.999994040E-3,
,,,-1.4120002E-3,-4.31999983E-3,,,,,-1.4120002E-3,99.999994040E-3,
,,,-1.4100001E-3,-3.43999988E-3,,,,,-1.4100001E-3,99.999994040E-3,
,,,-1.4080001E-3,-3.03999986E-3,,,,,-1.4080001E-3,79.999998212E-3,
,,,-1.4060001E-3,-3.19999992E-3,,,,,-1.4060001E-3,99.999994040E-3,
,,,-1.4040001E-3,-3.35999997E-3,,,,,-1.4040001E-3,79.999998212E-3,
,,,-1.4020001E-3,-3.35999997E-3,,,,,-1.4020001E-3,99.999994040E-3,
,,,-1.4000001E-3,-3.19999992E-3,,,,,-1.4000001E-3,79.999998212E-3,
,,,-1.3980002E-3,-2.3200000E-3,,,,,-1.3980002E-3,99.999994040E-3,
,,,-1.3960002E-3,-3.43999988E-3,,,,,-1.3960002E-3,79.999998212E-3,
,,,-1.3940001E-3,-3.27999983E-3,,,,,-1.3940001E-3,79.999998212E-3,
,,,-1.3920001E-3,-3.19999992E-3,,,,,-1.3920001E-3,79.999998212E-3,
,,,-1.3900001E-3,-3.51999979E-3,,,,,-1.3900001E-3,79.999998212E-3,
,,,-1.3880001E-3,-3.59999994E-3,,,,,-1.3880001E-3,79.999998212E-3,
,,,-1.3860001E-3,-3.67999985E-3,,,,,-1.3860001E-3,79.999998212E-3,
,,,-1.3840001E-3,-3.67999985E-3,,,,,-1.3840001E-3,79.999998212E-3,
,,,-1.3820002E-3,-3.67999985E-3,,,,,-1.3820002E-3,79.999998212E-3,
,,,-1.3800001E-3,-3.27999983E-3,,,,,-1.3800001E-3,79.999998212E-3,
,,,-1.3780001E-3,-3.03999986E-3,,,,,-1.3780001E-3,59.999998659E-3,
,,,-1.3760001E-3,-3.27999983E-3,,,,,-1.3760001E-3,79.999998212E-3,
,,,-1.3740001E-3,-3.35999997E-3,,,,,-1.3740001E-3,79.999998212E-3,
,,,-1.3720001E-3,-3.59999994E-3,,,,,-1.3720001E-3,79.999998212E-3,
,,,-1.3700001E-3,-3.92000005E-3,,,,,-1.3700001E-3,79.999998212E-3,
,,,-1.3680001E-3,-4.16000001E-3,,,,,-1.3680001E-3,79.999998212E-3,
,,,-1.3660002E-3,-4.31999983E-3,,,,,-1.3660002E-3,79.999998212E-3,
,,,-1.3640001E-3,-3.99999972E-3,,,,,-1.3640001E-3,79.999998212E-3,
,,,-1.3620001E-3,-4.16000001E-3,,,,,-1.3620001E-3,59.999998659E-3,
,,,-1.3600001E-3,-3.75999999E-3,,,,,-1.3600001E-3,79.999998212E-3,
,,,-1.3580001E-3,-4.16000001E-3,,,,,-1.3580001E-3,59.999998659E-3,
,,,-1.3560001E-3,-4.23999969E-3,,,,,-1.3560001E-3,59.999998659E-3,
,,,-1.3540001E-3,-4.23999969E-3,,,,,-1.3540001E-3,59.999998659E-3,
,,,-1.3520002E-3,-4.16000001E-3,,,,,-1.3520002E-3,59.999998659E-3,
,,,-1.3500002E-3,-4.23999969E-3,,,,,-1.3500002E-3,59.999998659E-3,
,,,-1.3480001E-3,-4.55999980E-3,,,,,-1.3480001E-3,59.999998659E-3,
,,,-1.3460001E-3,-4.55999980E-3,,,,,-1.3460001E-3,59.999998659E-3,
,,,-1.3440001E-3,-4.16000001E-3,,,,,-1.3440001E-3,59.999998659E-3,
,,,-1.3420001E-3,-3.99999972E-3,,,,,-1.3420001E-3,59.999998659E-3,
,,,-1.3400001E-3,-4.55999980E-3,,,,,-1.3400001E-3,59.999998659E-3,
,,,-1.3380001E-3,-4.63999994E-3,,,,,-1.3380001E-3,79.999998212E-3,
,,,-1.3360002E-3,-4.39999998E-3,,,,,-1.3360002E-3,59.999998659E-3,
,,,-1.3340001E-3,-4.23999969E-3,,,,,-1.3340001E-3,59.999998659E-3,
,,,-1.3320001E-3,-4.72000008E-3,,,,,-1.3320001E-3,39.99999911E-3,
,,,-1.3300001E-3,-4.39999998E-3,,,,,-1.3300001E-3,59.999998659E-3,
,,,-1.3280001E-3,-4.63999994E-3,,,,,-1.3280001E-3,59.999998659E-3,
,,,-1.3260001E-3,-4.23999969E-3,,,,,-1.3260001E-3,39.99999911E-3,
,,,-1.3240001E-3,-4.39999998E-3,,,,,-1.3240001E-3,59.999998659E-3,
,,,-1.3220001E-3,-3.99999972E-3,,,,,-1.3220001E-3,39.99999911E-3,
,,,-1.3200002E-3,-4.39999998E-3,,,,,-1.3200002E-3,19.9999996E-3,
,,,-1.3180001E-3,-4.16000001E-3,,,,,-1.3180001E-3,39.99999911E-3,
,,,-1.3160001E-3,-4.55999980E-3,,,,,-1.3160001E-3,39.99999911E-3,
,,,-1.3140001E-3,-4.39999998E-3,,,,,-1.3140001E-3,39.99999911E-3,
,,,-1.3120001E-3,-4.55999980E-3,,,,,-1.3120001E-3,39.99999911E-3,
,,,-1.3100001E-3,-3.92000005E-3,,,,,-1.3100001E-3,19.9999996E-3,
,,,-1.3080001E-3,-3.99999972E-3,,,,,-1.3080001E-3,39.99999911E-3,
,,,-1.3060002E-3,-4.39999998E-3,,,,,-1.3060002E-3,19.9999996E-3,
,,,-1.3040002E-3,-3.83999990E-3,,,,,-1.3040002E-3,19.9999996E-3,
,,,-1.3020001E-3,-4.07999987E-3,,,,,-1.3020001E-3,19.9999996E-3,
,,,-1.3000001E-3,-4.07999987E-3,,,,,-1.3000001E-3,19.9999996E-3,
,,,-1.2980001E-3,-4.16000001E-3,,,,,-1.2980001E-3,19.9999996E-3,
,,,-1.2960001E-3,-4.07999987E-3,,,,,-1.2960001E-3,19.9999996E-3,
,,,-1.2940001E-3,-3.67999985E-3,,,,,-1.2940001E-3,19.9999996E-3,
,,,-1.2920001E-3,-3.35999997E-3,,,,,-1.2920001E-3,19.9999996E-3,
,,,-1.2900002E-3,-3.27999983E-3,,,,,-1.2900002E-3,19.9999996E-3,
,,,-1.2880001E-3,-2.71999999E-3,,,,,-1.2880001E-3,19.9999996E-3,
,,,-1.2860001E-3,-3.67999985E-3,,,,,-1.2860001E-3,19.9999996E-3,
,,,-1.2840001E-3,-3.03999986E-3,,,,,-1.2840001E-3,19.9999996E-3,
,,,-1.2820001E-3,-2.71999999E-3,,,,,-1.2820001E-3,19.9999996E-3,
,,,-1.2800001E-3,-3.19999992E-3,,,,,-1.2800001E-3,19.9999996E-3,
,,,-1.2780001E-3,-2.5599999E-3,,,,,-1.2780001E-3,0.0,
,,,-1.2760002E-3,-2.5599999E-3,,,,,-1.2760002E-3,19.9999996E-3,
,,,-1.2740002E-3,-1.9999999E-3,,,,,-1.2740002E-3,19.9999996E-3,
,,,-1.2720001E-3,-1.3600000E-3,,,,,-1.2720001E-3,19.9999996E-3,
,,,-1.2700001E-3,-1.6000000E-3,,,,,-1.2700001E-3,0.0,
,,,-1.2680001E-3,-399.99998990E-6,,,,,-1.2680001E-3,0.0,
,,,-1.2660001E-3,239.99999394E-6,,,,,-1.2660001E-3,0.0,
,,,-1.2640001E-3,159.99999596E-6,,,,,-1.2640001E-3,19.9999996E-3,
,,,-1.2620001E-3,-319.99999192E-6,,,,,-1.2620001E-3,0.0,
,,,-1.2600002E-3,-159.99999596E-6,,,,,-1.2600002E-3,0.0,
,,,-1.2580001E-3,-239.99999394E-6,,,,,-1.2580001E-3,19.9999996E-3,
,,,-1.2560001E-3,479.999987874E-6,,,,,-1.2560001E-3,0.0,
,,,-1.2540001E-3,239.99999394E-6,,,,,-1.2540001E-3,0.0,
,,,-1.2520001E-3,1.0400000E-3,,,,,-1.2520001E-3,0.0,
,,,-1.2500001E-3,1.9200000E-3,,,,,-1.2500001E-3,0.0,
,,,-1.2480001E-3,3.19999992E-3,,,,,-1.2480001E-3,0.0,
,,,-1.2460001E-3,4.39999998E-3,,,,,-1.2460001E-3,0.0,
,,,-1.2440002E-3,5.20000001E-3,,,,,-1.2440002E-3,19.9999996E-3,
,,,-1.2420001E-3,5.27999969E-3,,,,,-1.2420001E-3,0.0,
,,,-1.2400001E-3,4.63999994E-3,,,,,-1.2400001E-3,0.0,
,,,-1.2380001E-3,3.19999992E-3,,,,,-1.2380001E-3,-19.9999996E-3,
,,,-1.2360001E-3,1.6800000E-3,,,,,-1.2360001E-3,-19.9999996E-3,
,,,-1.2340001E-3,399.99998990E-6,,,,,-1.2340001E-3,0.0,
,,,-1.2320001E-3,-159.99999596E-6,,,,,-1.2320001E-3,0.0,
,,,-1.2300002E-3,-799.999979790E-6,,,,,-1.2300002E-3,0.0,
,,,-1.2280002E-3,-1.4400000E-3,,,,,-1.2280002E-3,-19.9999996E-3,
,,,-1.2260001E-3,-1.9200000E-3,,,,,-1.2260001E-3,-19.9999996E-3,
,,,-1.2240001E-3,-2.1599999E-3,,,,,-1.2240001E-3,-19.9999996E-3,
,,,-1.2220001E-3,-2.79999990E-3,,,,,-1.2220001E-3,-19.9999996E-3,
,,,-1.2200001E-3,-2.95999995E-3,,,,,-1.2200001E-3,0.0,
,,,-1.2180001E-3,-2.79999990E-3,,,,,-1.2180001E-3,0.0,
,,,-1.2160001E-3,-3.27999983E-3,,,,,-1.2160001E-3,-19.9999996E-3,
,,,-1.2140002E-3,-3.59999994E-3,,,,,-1.2140002E-3,-19.9999996E-3,
,,,-1.2120001E-3,-3.12000001E-3,,,,,-1.2120001E-3,-39.99999911E-3,
,,,-1.2100001E-3,-4.16000001E-3,,,,,-1.2100001E-3,-39.99999911E-3,
,,,-1.2080001E-3,-3.67999985E-3,,,,,-1.2080001E-3,-19.9999996E-3,
,,,-1.2060001E-3,-3.27999983E-3,,,,,-1.2060001E-3,-19.9999996E-3,
,,,-1.2040001E-3,-4.07999987E-3,,,,,-1.2040001E-3,-39.99999911E-3,
,,,-1.2020001E-3,-3.67999985E-3,,,,,-1.2020001E-3,-19.9999996E-3,
,,,-1.2000001E-3,-3.75999999E-3,,,,,-1.2000001E-3,-19.9999996E-3,
,,,-1.1980002E-3,-4.63999994E-3,,,,,-1.1980002E-3,-39.99999911E-3,
,,,-1.1960001E-3,-3.92000005E-3,,,,,-1.1960001E-3,-39.99999911E-3,
,,,-1.1940001E-3,-3.92000005E-3,,,,,-1.1940001E-3,-19.9999996E-3,
,,,-1.1920001E-3,-4.16000001E-3,,,,,-1.1920001E-3,-39.99999911E-3,
,,,-1.1900001E-3,-3.92000005E-3,,,,,-1.1900001E-3,-39.99999911E-3,
,,,-1.1880001E-3,-4.07999987E-3,,,,,-1.1880001E-3,-39.99999911E-3,
,,,-1.1860001E-3,-4.63999994E-3,,,,,-1.1860001E-3,-39.99999911E-3,
,,,-1.1840002E-3,-4.39999998E-3,,,,,-1.1840002E-3,-59.999998659E-3,
,,,-1.1820002E-3,-3.99999972E-3,,,,,-1.1820002E-3,-39.99999911E-3,
,,,-1.1800001E-3,-4.39999998E-3,,,,,-1.1800001E-3,-39.99999911E-3,
,,,-1.1780001E-3,-4.23999969E-3,,,,,-1.1780001E-3,-39.99999911E-3,
,,,-1.1760001E-3,-4.63999994E-3,,,,,-1.1760001E-3,-39.99999911E-3,
,,,-1.1740001E-3,-4.47999965E-3,,,,,-1.1740001E-3,-59.999998659E-3,
,,,-1.1720001E-3,-3.99999972E-3,,,,,-1.1720001E-3,-39.99999911E-3,
,,,-1.1700001E-3,-4.16000001E-3,,,,,-1.1700001E-3,-39.99999911E-3,
,,,-1.1680002E-3,-4.39999998E-3,,,,,-1.1680002E-3,-59.999998659E-3,
,,,-1.1660001E-3,-4.55999980E-3,,,,,-1.1660001E-3,-59.999998659E-3,
,,,-1.1640001E-3,-4.16000001E-3,,,,,-1.1640001E-3,-59.999998659E-3,
,,,-1.1620001E-3,-4.23999969E-3,,,,,-1.1620001E-3,-59.999998659E-3,
,,,-1.1600001E-3,-3.99999972E-3,,,,,-1.1600001E-3,-59.999998659E-3,
,,,-1.1580001E-3,-4.55999980E-3,,,,,-1.1580001E-3,-59.999998659E-3,
,,,-1.1560001E-3,-3.67999985E-3,,,,,-1.1560001E-3,-39.99999911E-3,
,,,-1.1540001E-3,-4.39999998E-3,,,,,-1.1540001E-3,-59.999998659E-3,
,,,-1.1520002E-3,-4.39999998E-3,,,,,-1.1520002E-3,-59.999998659E-3,
,,,-1.1500001E-3,-4.79999976E-3,,,,,-1.1500001E-3,-59.999998659E-3,
,,,-1.1480001E-3,-4.47999965E-3,,,,,-1.1480001E-3,-59.999998659E-3,
,,,-1.1460001E-3,-4.16000001E-3,,,,,-1.1460001E-3,-39.99999911E-3,
,,,-1.1440001E-3,-4.16000001E-3,,,,,-1.1440001E-3,-59.999998659E-3,
,,,-1.1420001E-3,-4.23999969E-3,,,,,-1.1420001E-3,-59.999998659E-3,
,,,-1.1400001E-3,-4.79999976E-3,,,,,-1.1400001E-3,-59.999998659E-3,
,,,-1.1380002E-3,-4.23999969E-3,,,,,-1.1380002E-3,-59.999998659E-3,
,,,-1.1360002E-3,-4.16000001E-3,,,,,-1.1360002E-3,-59.999998659E-3,
,,,-1.1340001E-3,-3.92000005E-3,,,,,-1.1340001E-3,-59.999998659E-3,
,,,-1.1320001E-3,-4.23999969E-3,,,,,-1.1320001E-3,-79.999998212E-3,
,,,-1.1300001E-3,-3.92000005E-3,,,,,-1.1300001E-3,-59.999998659E-3,
,,,-1.1280001E-3,-4.16000001E-3,,,,,-1.1280001E-3,-79.999998212E-3,
,,,-1.1260001E-3,-4.16000001E-3,,,,,-1.1260001E-3,-79.999998212E-3,
,,,-1.1240001E-3,-4.63999994E-3,,,,,-1.1240001E-3,-79.999998212E-3,
,,,-1.1220002E-3,-4.07999987E-3,,,,,-1.1220002E-3,-59.999998659E-3,
,,,-1.1200001E-3,-4.07999987E-3,,,,,-1.1200001E-3,-79.999998212E-3,
,,,-1.1180001E-3,-4.55999980E-3,,,,,-1.1180001E-3,-79.999998212E-3,
,,,-1.1160001E-3,-4.63999994E-3,,,,,-1.1160001E-3,-79.999998212E-3,
,,,-1.1140001E-3,-4.07999987E-3,,,,,-1.1140001E-3,-59.999998659E-3,
,,,-1.1120001E-3,-4.16000001E-3,,,,,-1.1120001E-3,-79.999998212E-3,
,,,-1.1100001E-3,-4.23999969E-3,,,,,-1.1100001E-3,-79.999998212E-3,
,,,-1.1080001E-3,-4.87999991E-3,,,,,-1.1080001E-3,-99.999994040E-3,
,,,-1.1060002E-3,-4.79999976E-3,,,,,-1.1060002E-3,-79.999998212E-3,
,,,-1.1040001E-3,-4.23999969E-3,,,,,-1.1040001E-3,-79.999998212E-3,
,,,-1.1020001E-3,-4.79999976E-3,,,,,-1.1020001E-3,-79.999998212E-3,
,,,-1.1000001E-3,-4.55999980E-3,,,,,-1.1000001E-3,-79.999998212E-3,
,,,-1.0980001E-3,-4.55999980E-3,,,,,-1.0980001E-3,-99.999994040E-3,
,,,-1.0960001E-3,-4.55999980E-3,,,,,-1.0960001E-3,-99.999994040E-3,
,,,-1.0940001E-3,-4.63999994E-3,,,,,-1.0940001E-3,-79.999998212E-3,
,,,-1.0920002E-3,-4.63999994E-3,,,,,-1.0920002E-3,-99.999994040E-3,
,,,-1.0900002E-3,-4.72000008E-3,,,,,-1.0900002E-3,-99.999994040E-3,
,,,-1.0880001E-3,-4.87999991E-3,,,,,-1.0880001E-3,-99.999994040E-3,
,,,-1.0860001E-3,-5.11999987E-3,,,,,-1.0860001E-3,-79.999998212E-3,
,,,-1.0840001E-3,-4.63999994E-3,,,,,-1.0840001E-3,-99.999994040E-3,
,,,-1.0820001E-3,-4.55999980E-3,,,,,-1.0820001E-3,-79.999998212E-3,
,,,-1.0800001E-3,-4.23999969E-3,,,,,-1.0800001E-3,-79.999998212E-3,
,,,-1.0780001E-3,-4.63999994E-3,,,,,-1.0780001E-3,-99.999994040E-3,
,,,-1.0760002E-3,-4.55999980E-3,,,,,-1.0760002E-3,-99.999994040E-3,
,,,-1.0740001E-3,-4.16000001E-3,,,,,-1.0740001E-3,-99.999994040E-3,
,,,-1.0720001E-3,-4.72000008E-3,,,,,-1.0720001E-3,-99.999994040E-3,
,,,-1.0700001E-3,-4.96000005E-3,,,,,-1.0700001E-3,-99.999994040E-3,
,,,-1.0680001E-3,-4.96000005E-3,,,,,-1.0680001E-3,-99.999994040E-3,
,,,-1.0660001E-3,-4.23999969E-3,,,,,-1.0660001E-3,-99.999994040E-3,
,,,-1.0640001E-3,-4.39999998E-3,,,,,-1.0640001E-3,-79.999998212E-3,
,,,-1.0620002E-3,-4.55999980E-3,,,,,-1.0620002E-3,-119.9999973E-3,
,,,-1.0600002E-3,-4.87999991E-3,,,,,-1.0600002E-3,-99.999994040E-3,
,,,-1.0580001E-3,-4.55999980E-3,,,,,-1.0580001E-3,-99.999994040E-3,
,,,-1.0560001E-3,-4.23999969E-3,,,,,-1.0560001E-3,-99.999994040E-3,
,,,-1.0540001E-3,-4.63999994E-3,,,,,-1.0540001E-3,-99.999994040E-3,
,,,-1.0520001E-3,-4.55999980E-3,,,,,-1.0520001E-3,-119.9999973E-3,
,,,-1.0500001E-3,-4.16000001E-3,,,,,-1.0500001E-3,-99.999994040E-3,
,,,-1.0480001E-3,-4.47999965E-3,,,,,-1.0480001E-3,-99.999994040E-3,
,,,-1.0460002E-3,-4.31999983E-3,,,,,-1.0460002E-3,-119.9999973E-3,
,,,-1.0440001E-3,-4.23999969E-3,,,,,-1.0440001E-3,-119.9999973E-3,
,,,-1.0420001E-3,-4.07999987E-3,,,,,-1.0420001E-3,-119.9999973E-3,
,,,-1.0400001E-3,-3.99999972E-3,,,,,-1.0400001E-3,-119.9999973E-3,
,,,-1.0380001E-3,-4.79999976E-3,,,,,-1.0380001E-3,-140.0000006E-3,
,,,-1.0360001E-3,-4.31999983E-3,,,,,-1.0360001E-3,-119.9999973E-3,
,,,-1.0340001E-3,-4.47999965E-3,,,,,-1.0340001E-3,-119.9999973E-3,
